%YAML 1.1
%TAG !u! tag:unity3d.com,2011:
--- !u!29 &1
OcclusionCullingSettings:
  m_ObjectHideFlags: 0
  serializedVersion: 2
  m_OcclusionBakeSettings:
    smallestOccluder: 5
    smallestHole: 0.25
    backfaceThreshold: 100
  m_SceneGUID: 00000000000000000000000000000000
  m_OcclusionCullingData: {fileID: 0}
--- !u!104 &2
RenderSettings:
  m_ObjectHideFlags: 0
  serializedVersion: 9
  m_Fog: 0
  m_FogColor: {r: 0.5, g: 0.5, b: 0.5, a: 1}
  m_FogMode: 3
  m_FogDensity: 0.01
  m_LinearFogStart: 0
  m_LinearFogEnd: 300
  m_AmbientSkyColor: {r: 0.212, g: 0.227, b: 0.259, a: 1}
  m_AmbientEquatorColor: {r: 0.114, g: 0.125, b: 0.133, a: 1}
  m_AmbientGroundColor: {r: 0.047, g: 0.043, b: 0.035, a: 1}
  m_AmbientIntensity: 1
  m_AmbientMode: 0
  m_SubtractiveShadowColor: {r: 0.42, g: 0.478, b: 0.627, a: 1}
  m_SkyboxMaterial: {fileID: 10304, guid: 0000000000000000f000000000000000, type: 0}
  m_HaloStrength: 0.5
  m_FlareStrength: 1
  m_FlareFadeSpeed: 3
  m_HaloTexture: {fileID: 0}
  m_SpotCookie: {fileID: 10001, guid: 0000000000000000e000000000000000, type: 0}
  m_DefaultReflectionMode: 0
  m_DefaultReflectionResolution: 128
  m_ReflectionBounces: 1
  m_ReflectionIntensity: 1
  m_CustomReflection: {fileID: 0}
  m_Sun: {fileID: 0}
  m_IndirectSpecularColor: {r: 0, g: 0, b: 0, a: 1}
  m_UseRadianceAmbientProbe: 0
--- !u!157 &3
LightmapSettings:
  m_ObjectHideFlags: 0
  serializedVersion: 11
  m_GIWorkflowMode: 0
  m_GISettings:
    serializedVersion: 2
    m_BounceScale: 1
    m_IndirectOutputScale: 1
    m_AlbedoBoost: 1
    m_EnvironmentLightingMode: 0
    m_EnableBakedLightmaps: 1
    m_EnableRealtimeLightmaps: 1
  m_LightmapEditorSettings:
    serializedVersion: 12
    m_Resolution: 2
    m_BakeResolution: 40
    m_AtlasSize: 1024
    m_AO: 1
    m_AOMaxDistance: 1
    m_CompAOExponent: 1
    m_CompAOExponentDirect: 0
    m_ExtractAmbientOcclusion: 0
    m_Padding: 2
    m_LightmapParameters: {fileID: 0}
    m_LightmapsBakeMode: 1
    m_TextureCompression: 1
    m_FinalGather: 0
    m_FinalGatherFiltering: 1
    m_FinalGatherRayCount: 256
    m_ReflectionCompression: 2
    m_MixedBakeMode: 1
    m_BakeBackend: 0
    m_PVRSampling: 1
    m_PVRDirectSampleCount: 32
    m_PVRSampleCount: 512
    m_PVRBounces: 2
    m_PVREnvironmentSampleCount: 512
    m_PVREnvironmentReferencePointCount: 2048
    m_PVRFilteringMode: 0
    m_PVRDenoiserTypeDirect: 0
    m_PVRDenoiserTypeIndirect: 0
    m_PVRDenoiserTypeAO: 0
    m_PVRFilterTypeDirect: 0
    m_PVRFilterTypeIndirect: 0
    m_PVRFilterTypeAO: 0
    m_PVREnvironmentMIS: 0
    m_PVRCulling: 1
    m_PVRFilteringGaussRadiusDirect: 1
    m_PVRFilteringGaussRadiusIndirect: 5
    m_PVRFilteringGaussRadiusAO: 2
    m_PVRFilteringAtrousPositionSigmaDirect: 0.5
    m_PVRFilteringAtrousPositionSigmaIndirect: 2
    m_PVRFilteringAtrousPositionSigmaAO: 1
    m_ExportTrainingData: 0
    m_TrainingDataDestination: TrainingData
    m_LightProbeSampleCountMultiplier: 4
  m_LightingDataAsset: {fileID: 0}
  m_UseShadowmask: 0
--- !u!196 &4
NavMeshSettings:
  serializedVersion: 2
  m_ObjectHideFlags: 0
  m_BuildSettings:
    serializedVersion: 2
    agentTypeID: 0
    agentRadius: 0.5
    agentHeight: 2
    agentSlope: 45
    agentClimb: 0.4
    ledgeDropHeight: 0
    maxJumpAcrossDistance: 0
    minRegionArea: 2
    manualCellSize: 0
    cellSize: 0.16666667
    manualTileSize: 0
    tileSize: 256
    accuratePlacement: 0
    debug:
      m_Flags: 0
  m_NavMeshData: {fileID: 0}
--- !u!1 &147707777 stripped
GameObject:
  m_CorrespondingSourceObject: {fileID: 1000012050335254, guid: 44c162440cb5f1842bcb040f8fb66783,
    type: 3}
  m_PrefabInstance: {fileID: 1325569719}
  m_PrefabAsset: {fileID: 0}
--- !u!114 &147707781
MonoBehaviour:
  m_ObjectHideFlags: 0
  m_CorrespondingSourceObject: {fileID: 0}
  m_PrefabInstance: {fileID: 0}
  m_PrefabAsset: {fileID: 0}
  m_GameObject: {fileID: 147707777}
  m_Enabled: 1
  m_EditorHideFlags: 0
  m_Script: {fileID: 11500000, guid: fe87c0e1cc204ed48ad3b37840f39efc, type: 3}
  m_Name: 
  m_EditorClassIdentifier: 
  m_Material: {fileID: 0}
  m_Color: {r: 1, g: 1, b: 1, a: 1}
  m_RaycastTarget: 1
  m_Maskable: 1
  m_OnCullStateChanged:
    m_PersistentCalls:
      m_Calls: []
  m_Sprite: {fileID: 0}
  m_Type: 0
  m_PreserveAspect: 0
  m_FillCenter: 1
  m_FillMethod: 4
  m_FillAmount: 1
  m_FillClockwise: 1
  m_FillOrigin: 0
  m_UseSpriteMesh: 0
  m_PixelsPerUnitMultiplier: 1
--- !u!1 &169926960
GameObject:
  m_ObjectHideFlags: 43
  m_CorrespondingSourceObject: {fileID: 0}
  m_PrefabInstance: {fileID: 0}
  m_PrefabAsset: {fileID: 0}
  serializedVersion: 6
  m_Component:
  - component: {fileID: 169926961}
  m_Layer: 5
  m_Name: New Game Object
  m_TagString: Untagged
  m_Icon: {fileID: 0}
  m_NavMeshLayer: 0
  m_StaticEditorFlags: 0
  m_IsActive: 1
--- !u!4 &169926961
Transform:
  m_ObjectHideFlags: 43
  m_CorrespondingSourceObject: {fileID: 0}
  m_PrefabInstance: {fileID: 0}
  m_PrefabAsset: {fileID: 0}
  m_GameObject: {fileID: 169926960}
  m_LocalRotation: {x: 0, y: 0, z: 0, w: 1}
  m_LocalPosition: {x: -120.33952, y: -53, z: 0}
  m_LocalScale: {x: 0.46861187, y: 0.46861187, z: 0.46861187}
  m_Children:
  - {fileID: 1412796839}
  m_Father: {fileID: 1422985486}
  m_RootOrder: 0
  m_LocalEulerAnglesHint: {x: 0, y: 0, z: 0}
--- !u!1 &336153646
GameObject:
  m_ObjectHideFlags: 0
  m_CorrespondingSourceObject: {fileID: 0}
  m_PrefabInstance: {fileID: 0}
  m_PrefabAsset: {fileID: 0}
  serializedVersion: 6
  m_Component:
  - component: {fileID: 336153647}
  - component: {fileID: 336153648}
  - component: {fileID: 336153654}
  - component: {fileID: 336153653}
  - component: {fileID: 336153652}
  - component: {fileID: 336153651}
  - component: {fileID: 336153650}
  - component: {fileID: 336153649}
  m_Layer: 5
  m_Name: BarCanvasMultiple
  m_TagString: Untagged
  m_Icon: {fileID: 0}
  m_NavMeshLayer: 0
  m_StaticEditorFlags: 0
  m_IsActive: 1
--- !u!224 &336153647
RectTransform:
  m_ObjectHideFlags: 0
  m_CorrespondingSourceObject: {fileID: 0}
  m_PrefabInstance: {fileID: 0}
  m_PrefabAsset: {fileID: 0}
  m_GameObject: {fileID: 336153646}
  m_LocalRotation: {x: -0, y: -0, z: -0, w: 1}
  m_LocalPosition: {x: 0, y: 0, z: 0}
  m_LocalScale: {x: 1, y: 1, z: 1}
  m_Children:
  - {fileID: 1182156070}
  m_Father: {fileID: 1226075348}
  m_RootOrder: 0
  m_LocalEulerAnglesHint: {x: 0, y: 0, z: 0}
  m_AnchorMin: {x: 0, y: 0}
  m_AnchorMax: {x: 1, y: 1}
  m_AnchoredPosition: {x: 0.000030517578, y: 0}
  m_SizeDelta: {x: -319.99997, y: -300}
  m_Pivot: {x: 0.5, y: 0.5}
--- !u!114 &336153648
MonoBehaviour:
  m_ObjectHideFlags: 0
  m_CorrespondingSourceObject: {fileID: 0}
  m_PrefabInstance: {fileID: 0}
  m_PrefabAsset: {fileID: 0}
  m_GameObject: {fileID: 336153646}
  m_Enabled: 1
  m_EditorHideFlags: 0
  m_Script: {fileID: 11500000, guid: acb1d1c592b0c794d8bff6d0a590986e, type: 3}
  m_Name: 
  m_EditorClassIdentifier: 
  mPreviewObject: {fileID: 0}
  OnRedraw:
    m_PersistentCalls:
      m_Calls: []
  keepOrthoSize: 0
  paperEffectText: 0
  vRSpaceText: 0
  vRSpaceScale: 0.1
  maintainLabelSize: 0
  viewType: 0
  negativeBars: 0
  stacked: 0
  BarClicked:
    m_PersistentCalls:
      m_Calls: []
  BarHovered:
    m_PersistentCalls:
      m_Calls: []
  NonHovered:
    m_PersistentCalls:
      m_Calls: []
  Data:
    mCategories:
    - Name: Player 1
      Materials:
        Normal: {fileID: 2100000, guid: ba1479ea605865245b636d6b3996f5a4, type: 2}
        Hover: {r: 0.9558824, g: 0.9558824, b: 0.9558824, a: 1}
        Selected: {r: 1, g: 1, b: 1, a: 1}
    - Name: Player 2
      Materials:
        Normal: {fileID: 2100000, guid: 6e197c2f133bdc84bb930e4bb0ba8aa7, type: 2}
        Hover: {r: 0.9529412, g: 0.9529412, b: 0.9529412, a: 1}
        Selected: {r: 1, g: 1, b: 1, a: 1}
    - Name: Player 3
      Materials:
        Normal: {fileID: 2100000, guid: 17e6c60474da53742b24e6b561e0191d, type: 2}
        Hover: {r: 0.9529412, g: 0.9529412, b: 0.9529412, a: 1}
        Selected: {r: 1, g: 1, b: 1, a: 1}
    - Name: Player 4
      Materials:
        Normal: {fileID: 2100000, guid: e18eebaae017082429347f9ddc92e62c, type: 2}
        Hover: {r: 0.9529412, g: 0.9529412, b: 0.9529412, a: 1}
        Selected: {r: 1, g: 1, b: 1, a: 1}
    mGroups:
    - Lite Edition
    mData:
    - GroupName: Lite Edition
      ColumnName: Player 1
      Amount: 8
    - GroupName: Lite Edition
      ColumnName: Player 2
      Amount: 6
    - GroupName: Lite Edition
      ColumnName: Player 3
      Amount: 4
    - GroupName: Lite Edition
      ColumnName: Player 4
      Amount: 11
    automaticMaxValue: 0
    maxValue: 10
    automaticMinValue: 0
    minValue: 0
  transitionTimeBetaFeature: -1
  heightRatio: 226.2
  totalWidth: 513.6
  totalDepth: 0
  fitToContainer: 0
  fitMargin:
    left: 0
    top: 0
    right: 0
    bottom: 0
  barPrefab: {fileID: 222000010169192002, guid: a2a88f9f044c9e442a193338f8096ccd,
    type: 3}
  axisSeperation: 63.2
  barSeperation: 76.09
  groupSeperation: 0
  barSize: 158.93
  barFitType: 1
  barFitAlign: 2
--- !u!114 &336153649
MonoBehaviour:
  m_ObjectHideFlags: 0
  m_CorrespondingSourceObject: {fileID: 0}
  m_PrefabInstance: {fileID: 0}
  m_PrefabAsset: {fileID: 0}
  m_GameObject: {fileID: 336153646}
  m_Enabled: 1
  m_EditorHideFlags: 0
  m_Script: {fileID: 11500000, guid: 8fa3c1507f66ca24fa9c929b5fae69a5, type: 3}
  m_Name: 
  m_EditorClassIdentifier: 
  Curve:
    serializedVersion: 2
    m_Curve:
    - serializedVersion: 3
      time: 0
      value: 0
      inSlope: 2
      outSlope: 2
      tangentMode: 0
      weightedMode: 0
      inWeight: 0.33333334
      outWeight: 0.33333334
    - serializedVersion: 3
      time: 1
      value: 1
      inSlope: 0
      outSlope: 0
      tangentMode: 0
      weightedMode: 0
      inWeight: 0.33333334
      outWeight: 0.33333334
    m_PreInfinity: 2
    m_PostInfinity: 2
    m_RotationOrder: 4
  AnimateOnStart: 1
  AnimationTime: 3
--- !u!114 &336153650
MonoBehaviour:
  m_ObjectHideFlags: 0
  m_CorrespondingSourceObject: {fileID: 0}
  m_PrefabInstance: {fileID: 0}
  m_PrefabAsset: {fileID: 0}
  m_GameObject: {fileID: 336153646}
  m_Enabled: 1
  m_EditorHideFlags: 0
  m_Script: {fileID: 11500000, guid: 7598682dc3bb9174d9546fe226cab95a, type: 3}
  m_Name: 
  m_EditorClassIdentifier: 
  SimpleView: 0
  format: 0
  depth:
    Automatic: 0
    Value: 0
  mainDivisions:
    messure: 0
    unitsPerDivision: 0
    total: 3
    material: {fileID: 2100000, guid: 3c9d5cb6cbfffcf47aefcbeb0f0b37b6, type: 2}
    materialTiling:
      EnableTiling: 0
      TileFactor: 12
    markBackLength:
      Automatic: 1
      Value: 0.5
    markLength:
      Automatic: 1
      Value: 0.5
    markDepth:
      Automatic: 1
      Value: 0.5
    markThickness: 2
    textPrefab: {fileID: 114000014259531626, guid: 4d50bc159c1075f43ac7be274dc1cf2c,
      type: 3}
    textPrefix: 
    textSuffix: 
    fractionDigits: 2
    fontSize: 8
    fontSharpness: 3
    textDepth: 0
    textSeperation: -1.34
    alignment: 1
  subDivisions:
    messure: 0
    unitsPerDivision: 0
    total: 1
    material: {fileID: 2100000, guid: 387acf3cc0524344980e92fa3f38dfd1, type: 2}
    materialTiling:
      EnableTiling: 1
      TileFactor: 32
    markBackLength:
      Automatic: 1
      Value: 0.5
    markLength:
      Automatic: 1
      Value: 0.5
    markDepth:
      Automatic: 1
      Value: 0.5
    markThickness: 3.87
    textPrefab: {fileID: 114000011523374616, guid: e686e7c904b1d4b44a8eae8475c67797,
      type: 3}
    textPrefix: 
    textSuffix: 
    fractionDigits: 2
    fontSize: 12
    fontSharpness: 3
    textDepth: 0
    textSeperation: -10.56
    alignment: 1
--- !u!114 &336153651
MonoBehaviour:
  m_ObjectHideFlags: 0
  m_CorrespondingSourceObject: {fileID: 0}
  m_PrefabInstance: {fileID: 0}
  m_PrefabAsset: {fileID: 0}
  m_GameObject: {fileID: 336153646}
  m_Enabled: 0
  m_EditorHideFlags: 0
  m_Script: {fileID: 11500000, guid: 08395b16192f9114e8ad4953e48f90bd, type: 3}
  m_Name: 
  m_EditorClassIdentifier: 
  SimpleView: 1
  format: 0
  depth:
    Automatic: 0
    Value: 0
  mainDivisions:
    messure: 0
    unitsPerDivision: 0
    total: 3
    material: {fileID: 0}
    materialTiling:
      EnableTiling: 0
      TileFactor: 100
    markBackLength:
      Automatic: 1
      Value: 0.5
    markLength:
      Automatic: 1
      Value: 0.5
    markDepth:
      Automatic: 1
      Value: 0.5
    markThickness: 0.83
    textPrefab: {fileID: 0}
    textPrefix: 
    textSuffix: 
    fractionDigits: 2
    fontSize: 12
    fontSharpness: 3
    textDepth: 0
    textSeperation: 0
    alignment: 1
  subDivisions:
    messure: 0
    unitsPerDivision: 0
    total: 3
    material: {fileID: 0}
    materialTiling:
      EnableTiling: 0
      TileFactor: 100
    markBackLength:
      Automatic: 1
      Value: 0.5
    markLength:
      Automatic: 1
      Value: 0.5
    markDepth:
      Automatic: 1
      Value: 0.5
    markThickness: 0.83
    textPrefab: {fileID: 0}
    textPrefix: 
    textSuffix: 
    fractionDigits: 2
    fontSize: 12
    fontSharpness: 3
    textDepth: 0
    textSeperation: 0
    alignment: 1
--- !u!114 &336153652
MonoBehaviour:
  m_ObjectHideFlags: 0
  m_CorrespondingSourceObject: {fileID: 0}
  m_PrefabInstance: {fileID: 0}
  m_PrefabAsset: {fileID: 0}
  m_GameObject: {fileID: 336153646}
  m_Enabled: 1
  m_EditorHideFlags: 0
  m_Script: {fileID: 11500000, guid: 683c1c28d013cce4c9128c952dbdca81, type: 3}
  m_Name: 
  m_EditorClassIdentifier: 
  textPrefab: {fileID: 114000014259531626, guid: 0d70ad8ff577446489cd65b8a9bc5b31,
    type: 3}
  textFormat:
    prefix: 
    suffix: 
    customFormat: 
  fontSize: 12
  fontSharpness: 3
  seperation: -23.54
  location:
    Breadth: 0
    Depth: 0
  alignment: 1
  visibleLabels: 0
--- !u!114 &336153653
MonoBehaviour:
  m_ObjectHideFlags: 0
  m_CorrespondingSourceObject: {fileID: 0}
  m_PrefabInstance: {fileID: 0}
  m_PrefabAsset: {fileID: 0}
  m_GameObject: {fileID: 336153646}
  m_Enabled: 0
  m_EditorHideFlags: 0
  m_Script: {fileID: 11500000, guid: 8a5935733d0eb5b48ba1db228c83f0f0, type: 3}
  m_Name: 
  m_EditorClassIdentifier: 
  textPrefab: {fileID: 114000014259531626, guid: 0d70ad8ff577446489cd65b8a9bc5b31,
    type: 3}
  textFormat:
    prefix: 
    suffix: 
    customFormat: 
  fontSize: 25
  fontSharpness: 3
  seperation: 47.64
  location:
    Breadth: 0
    Depth: -25.2
  alignment: 0
--- !u!114 &336153654
MonoBehaviour:
  m_ObjectHideFlags: 0
  m_CorrespondingSourceObject: {fileID: 0}
  m_PrefabInstance: {fileID: 0}
  m_PrefabAsset: {fileID: 0}
  m_GameObject: {fileID: 336153646}
  m_Enabled: 1
  m_EditorHideFlags: 0
  m_Script: {fileID: 11500000, guid: 5eb3e26fd06b41d4baa022120f5cd617, type: 3}
  m_Name: 
  m_EditorClassIdentifier: 
  textPrefab: {fileID: 114000014259531626, guid: 0d70ad8ff577446489cd65b8a9bc5b31,
    type: 3}
  textFormat:
    prefix: 
    suffix: 
    customFormat: 
  fontSize: 12
  fontSharpness: 3
  seperation: 20.86
  location:
    Breadth: 0
    Depth: 0
  alignment: 0
  fractionDigits: 0
--- !u!224 &660338751 stripped
RectTransform:
  m_CorrespondingSourceObject: {fileID: 224000013311149932, guid: 44c162440cb5f1842bcb040f8fb66783,
    type: 3}
  m_PrefabInstance: {fileID: 1325569719}
  m_PrefabAsset: {fileID: 0}
--- !u!1 &764355533
GameObject:
  m_ObjectHideFlags: 0
  m_CorrespondingSourceObject: {fileID: 0}
  m_PrefabInstance: {fileID: 0}
  m_PrefabAsset: {fileID: 0}
  serializedVersion: 6
  m_Component:
  - component: {fileID: 764355538}
  - component: {fileID: 764355537}
  - component: {fileID: 764355535}
  - component: {fileID: 764355534}
  m_Layer: 0
  m_Name: Main Camera
  m_TagString: MainCamera
  m_Icon: {fileID: 0}
  m_NavMeshLayer: 0
  m_StaticEditorFlags: 0
  m_IsActive: 1
--- !u!81 &764355534
AudioListener:
  m_ObjectHideFlags: 0
  m_CorrespondingSourceObject: {fileID: 0}
  m_PrefabInstance: {fileID: 0}
  m_PrefabAsset: {fileID: 0}
  m_GameObject: {fileID: 764355533}
  m_Enabled: 1
--- !u!124 &764355535
Behaviour:
  m_ObjectHideFlags: 0
  m_CorrespondingSourceObject: {fileID: 0}
  m_PrefabInstance: {fileID: 0}
  m_PrefabAsset: {fileID: 0}
  m_GameObject: {fileID: 764355533}
  m_Enabled: 1
--- !u!20 &764355537
Camera:
  m_ObjectHideFlags: 0
  m_CorrespondingSourceObject: {fileID: 0}
  m_PrefabInstance: {fileID: 0}
  m_PrefabAsset: {fileID: 0}
  m_GameObject: {fileID: 764355533}
  m_Enabled: 1
  serializedVersion: 2
  m_ClearFlags: 2
  m_BackGroundColor: {r: 0.9647059, g: 0.9824746, b: 1, a: 1}
  m_projectionMatrixMode: 1
  m_GateFitMode: 2
  m_FOVAxisMode: 0
  m_SensorSize: {x: 36, y: 24}
  m_LensShift: {x: 0, y: 0}
  m_FocalLength: 50
  m_NormalizedViewPortRect:
    serializedVersion: 2
    x: 0
    y: 0
    width: 1
    height: 1
  near clip plane: 0.3
  far clip plane: 1000
  field of view: 60
  orthographic: 0
  orthographic size: 5
  m_Depth: -1
  m_CullingMask:
    serializedVersion: 2
    m_Bits: 4294967295
  m_RenderingPath: -1
  m_TargetTexture: {fileID: 0}
  m_TargetDisplay: 0
  m_TargetEye: 3
  m_HDR: 0
  m_AllowMSAA: 1
  m_AllowDynamicResolution: 0
  m_ForceIntoRT: 0
  m_OcclusionCulling: 1
  m_StereoConvergence: 10
  m_StereoSeparation: 0.022
--- !u!4 &764355538
Transform:
  m_ObjectHideFlags: 0
  m_CorrespondingSourceObject: {fileID: 0}
  m_PrefabInstance: {fileID: 0}
  m_PrefabAsset: {fileID: 0}
  m_GameObject: {fileID: 764355533}
  m_LocalRotation: {x: 0, y: 0, z: 0, w: 1}
  m_LocalPosition: {x: 0, y: 1, z: -10}
  m_LocalScale: {x: 1, y: 1, z: 1}
  m_Children: []
  m_Father: {fileID: 0}
  m_RootOrder: 0
  m_LocalEulerAnglesHint: {x: 0, y: 0, z: 0}
--- !u!1 &842919730
GameObject:
  m_ObjectHideFlags: 43
  m_CorrespondingSourceObject: {fileID: 0}
  m_PrefabInstance: {fileID: 0}
  m_PrefabAsset: {fileID: 0}
  serializedVersion: 6
  m_Component:
  - component: {fileID: 842919731}
  m_Layer: 5
  m_Name: New Game Object
  m_TagString: Untagged
  m_Icon: {fileID: 0}
  m_NavMeshLayer: 0
  m_StaticEditorFlags: 0
  m_IsActive: 1
--- !u!4 &842919731
Transform:
  m_ObjectHideFlags: 43
  m_CorrespondingSourceObject: {fileID: 0}
  m_PrefabInstance: {fileID: 0}
  m_PrefabAsset: {fileID: 0}
  m_GameObject: {fileID: 842919730}
  m_LocalRotation: {x: 0, y: 0, z: 0, w: 1}
  m_LocalPosition: {x: -120.33952, y: -53, z: 0}
  m_LocalScale: {x: 0.46861187, y: 0.46861187, z: 0.46861187}
  m_Children:
  - {fileID: 1422985486}
  m_Father: {fileID: 1280758475}
  m_RootOrder: 0
  m_LocalEulerAnglesHint: {x: 0, y: 0, z: 0}
--- !u!1 &1182156069
GameObject:
  m_ObjectHideFlags: 43
  m_CorrespondingSourceObject: {fileID: 0}
  m_PrefabInstance: {fileID: 0}
  m_PrefabAsset: {fileID: 0}
  serializedVersion: 6
  m_Component:
  - component: {fileID: 1182156070}
  m_Layer: 0
  m_Name: New Game Object
  m_TagString: Untagged
  m_Icon: {fileID: 0}
  m_NavMeshLayer: 0
  m_StaticEditorFlags: 0
  m_IsActive: 1
--- !u!4 &1182156070
Transform:
  m_ObjectHideFlags: 43
  m_CorrespondingSourceObject: {fileID: 0}
  m_PrefabInstance: {fileID: 0}
  m_PrefabAsset: {fileID: 0}
  m_GameObject: {fileID: 1182156069}
  m_LocalRotation: {x: 0, y: 0, z: 0, w: 1}
  m_LocalPosition: {x: -120.33952, y: -53, z: 0}
  m_LocalScale: {x: 0.46861187, y: 0.46861187, z: 0.46861187}
  m_Children:
  - {fileID: 1266068855}
  m_Father: {fileID: 336153647}
  m_RootOrder: 0
  m_LocalEulerAnglesHint: {x: 0, y: 0, z: 0}
--- !u!1 &1226075344
GameObject:
  m_ObjectHideFlags: 0
  m_CorrespondingSourceObject: {fileID: 0}
  m_PrefabInstance: {fileID: 0}
  m_PrefabAsset: {fileID: 0}
  serializedVersion: 6
  m_Component:
  - component: {fileID: 1226075348}
  - component: {fileID: 1226075347}
  - component: {fileID: 1226075346}
  - component: {fileID: 1226075345}
  m_Layer: 5
  m_Name: Canvas
  m_TagString: Untagged
  m_Icon: {fileID: 0}
  m_NavMeshLayer: 0
  m_StaticEditorFlags: 0
  m_IsActive: 1
--- !u!114 &1226075345
MonoBehaviour:
  m_ObjectHideFlags: 0
  m_CorrespondingSourceObject: {fileID: 0}
  m_PrefabInstance: {fileID: 0}
  m_PrefabAsset: {fileID: 0}
  m_GameObject: {fileID: 1226075344}
  m_Enabled: 1
  m_EditorHideFlags: 0
  m_Script: {fileID: 11500000, guid: dc42784cf147c0c48a680349fa168899, type: 3}
  m_Name: 
  m_EditorClassIdentifier: 
  m_IgnoreReversedGraphics: 1
  m_BlockingObjects: 0
  m_BlockingMask:
    serializedVersion: 2
    m_Bits: 4294967295
--- !u!114 &1226075346
MonoBehaviour:
  m_ObjectHideFlags: 0
  m_CorrespondingSourceObject: {fileID: 0}
  m_PrefabInstance: {fileID: 0}
  m_PrefabAsset: {fileID: 0}
  m_GameObject: {fileID: 1226075344}
  m_Enabled: 1
  m_EditorHideFlags: 0
  m_Script: {fileID: 11500000, guid: 0cd44c1031e13a943bb63640046fad76, type: 3}
  m_Name: 
  m_EditorClassIdentifier: 
  m_UiScaleMode: 0
  m_ReferencePixelsPerUnit: 100
  m_ScaleFactor: 1
  m_ReferenceResolution: {x: 800, y: 600}
  m_ScreenMatchMode: 0
  m_MatchWidthOrHeight: 0
  m_PhysicalUnit: 3
  m_FallbackScreenDPI: 96
  m_DefaultSpriteDPI: 96
  m_DynamicPixelsPerUnit: 1
--- !u!223 &1226075347
Canvas:
  m_ObjectHideFlags: 0
  m_CorrespondingSourceObject: {fileID: 0}
  m_PrefabInstance: {fileID: 0}
  m_PrefabAsset: {fileID: 0}
  m_GameObject: {fileID: 1226075344}
  m_Enabled: 1
  serializedVersion: 3
  m_RenderMode: 1
  m_Camera: {fileID: 764355537}
  m_PlaneDistance: 20
  m_PixelPerfect: 0
  m_ReceivesEvents: 1
  m_OverrideSorting: 0
  m_OverridePixelPerfect: 0
  m_SortingBucketNormalizedSize: 0
  m_AdditionalShaderChannelsFlag: 25
  m_SortingLayerID: 0
  m_SortingOrder: 0
  m_TargetDisplay: 0
--- !u!224 &1226075348
RectTransform:
  m_ObjectHideFlags: 0
  m_CorrespondingSourceObject: {fileID: 0}
  m_PrefabInstance: {fileID: 0}
  m_PrefabAsset: {fileID: 0}
  m_GameObject: {fileID: 1226075344}
  m_LocalRotation: {x: 0, y: 0, z: 0, w: 1}
  m_LocalPosition: {x: 0, y: 0, z: 0}
  m_LocalScale: {x: 0, y: 0, z: 0}
  m_Children:
  - {fileID: 336153647}
  - {fileID: 660338751}
  - {fileID: 1917194732}
  m_Father: {fileID: 0}
  m_RootOrder: 2
  m_LocalEulerAnglesHint: {x: 0, y: 0, z: 0}
  m_AnchorMin: {x: 0, y: 0}
  m_AnchorMax: {x: 0, y: 0}
  m_AnchoredPosition: {x: 0, y: 0}
  m_SizeDelta: {x: 0, y: 0}
  m_Pivot: {x: 0, y: 0}
--- !u!1 &1266068854
GameObject:
  m_ObjectHideFlags: 43
  m_CorrespondingSourceObject: {fileID: 0}
  m_PrefabInstance: {fileID: 0}
  m_PrefabAsset: {fileID: 0}
  serializedVersion: 6
  m_Component:
  - component: {fileID: 1266068855}
  m_Layer: 5
  m_Name: New Game Object
  m_TagString: Untagged
  m_Icon: {fileID: 0}
  m_NavMeshLayer: 0
  m_StaticEditorFlags: 0
  m_IsActive: 1
--- !u!4 &1266068855
Transform:
  m_ObjectHideFlags: 43
  m_CorrespondingSourceObject: {fileID: 0}
  m_PrefabInstance: {fileID: 0}
  m_PrefabAsset: {fileID: 0}
  m_GameObject: {fileID: 1266068854}
  m_LocalRotation: {x: 0, y: 0, z: 0, w: 1}
  m_LocalPosition: {x: -120.33952, y: -53, z: 0}
  m_LocalScale: {x: 0.46861187, y: 0.46861187, z: 0.46861187}
  m_Children:
  - {fileID: 1280758475}
  m_Father: {fileID: 1182156070}
  m_RootOrder: 0
  m_LocalEulerAnglesHint: {x: 0, y: 0, z: 0}
--- !u!1 &1280758474
GameObject:
  m_ObjectHideFlags: 43
  m_CorrespondingSourceObject: {fileID: 0}
  m_PrefabInstance: {fileID: 0}
  m_PrefabAsset: {fileID: 0}
  serializedVersion: 6
  m_Component:
  - component: {fileID: 1280758475}
  m_Layer: 5
  m_Name: New Game Object
  m_TagString: Untagged
  m_Icon: {fileID: 0}
  m_NavMeshLayer: 0
  m_StaticEditorFlags: 0
  m_IsActive: 1
--- !u!4 &1280758475
Transform:
  m_ObjectHideFlags: 43
  m_CorrespondingSourceObject: {fileID: 0}
  m_PrefabInstance: {fileID: 0}
  m_PrefabAsset: {fileID: 0}
  m_GameObject: {fileID: 1280758474}
  m_LocalRotation: {x: 0, y: 0, z: 0, w: 1}
  m_LocalPosition: {x: -120.33952, y: -53, z: 0}
  m_LocalScale: {x: 0.46861187, y: 0.46861187, z: 0.46861187}
  m_Children:
  - {fileID: 842919731}
  m_Father: {fileID: 1266068855}
  m_RootOrder: 0
  m_LocalEulerAnglesHint: {x: 0, y: 0, z: 0}
--- !u!1001 &1325569719
PrefabInstance:
  m_ObjectHideFlags: 0
  serializedVersion: 2
  m_Modification:
    m_TransformParent: {fileID: 1226075348}
    m_Modifications:
    - target: {fileID: 1000012050335254, guid: 44c162440cb5f1842bcb040f8fb66783, type: 3}
      propertyPath: m_IsActive
      value: 1
      objectReference: {fileID: 0}
    - target: {fileID: 114000011953285840, guid: 44c162440cb5f1842bcb040f8fb66783,
        type: 3}
      propertyPath: chart
      value: 
      objectReference: {fileID: 336153648}
    - target: {fileID: 224000013311149932, guid: 44c162440cb5f1842bcb040f8fb66783,
        type: 3}
      propertyPath: m_Pivot.x
      value: 0.5
      objectReference: {fileID: 0}
    - target: {fileID: 224000013311149932, guid: 44c162440cb5f1842bcb040f8fb66783,
        type: 3}
      propertyPath: m_Pivot.y
      value: 0.5
      objectReference: {fileID: 0}
    - target: {fileID: 224000013311149932, guid: 44c162440cb5f1842bcb040f8fb66783,
        type: 3}
      propertyPath: m_RootOrder
      value: 1
      objectReference: {fileID: 0}
    - target: {fileID: 224000013311149932, guid: 44c162440cb5f1842bcb040f8fb66783,
        type: 3}
      propertyPath: m_AnchorMax.x
      value: 0
      objectReference: {fileID: 0}
    - target: {fileID: 224000013311149932, guid: 44c162440cb5f1842bcb040f8fb66783,
        type: 3}
      propertyPath: m_AnchorMax.y
      value: 0
      objectReference: {fileID: 0}
    - target: {fileID: 224000013311149932, guid: 44c162440cb5f1842bcb040f8fb66783,
        type: 3}
      propertyPath: m_AnchorMin.x
      value: 0
      objectReference: {fileID: 0}
    - target: {fileID: 224000013311149932, guid: 44c162440cb5f1842bcb040f8fb66783,
        type: 3}
      propertyPath: m_AnchorMin.y
      value: 0
      objectReference: {fileID: 0}
    - target: {fileID: 224000013311149932, guid: 44c162440cb5f1842bcb040f8fb66783,
        type: 3}
      propertyPath: m_SizeDelta.x
      value: 143.9
      objectReference: {fileID: 0}
    - target: {fileID: 224000013311149932, guid: 44c162440cb5f1842bcb040f8fb66783,
        type: 3}
      propertyPath: m_SizeDelta.y
      value: 78.5
      objectReference: {fileID: 0}
    - target: {fileID: 224000013311149932, guid: 44c162440cb5f1842bcb040f8fb66783,
        type: 3}
      propertyPath: m_LocalPosition.x
      value: 0
      objectReference: {fileID: 0}
    - target: {fileID: 224000013311149932, guid: 44c162440cb5f1842bcb040f8fb66783,
        type: 3}
      propertyPath: m_LocalPosition.y
      value: 0
      objectReference: {fileID: 0}
    - target: {fileID: 224000013311149932, guid: 44c162440cb5f1842bcb040f8fb66783,
        type: 3}
      propertyPath: m_LocalPosition.z
      value: 0
      objectReference: {fileID: 0}
    - target: {fileID: 224000013311149932, guid: 44c162440cb5f1842bcb040f8fb66783,
        type: 3}
      propertyPath: m_LocalRotation.w
      value: 1
      objectReference: {fileID: 0}
    - target: {fileID: 224000013311149932, guid: 44c162440cb5f1842bcb040f8fb66783,
        type: 3}
      propertyPath: m_LocalRotation.x
      value: 0
      objectReference: {fileID: 0}
    - target: {fileID: 224000013311149932, guid: 44c162440cb5f1842bcb040f8fb66783,
        type: 3}
      propertyPath: m_LocalRotation.y
      value: 0
      objectReference: {fileID: 0}
    - target: {fileID: 224000013311149932, guid: 44c162440cb5f1842bcb040f8fb66783,
        type: 3}
      propertyPath: m_LocalRotation.z
      value: 0
      objectReference: {fileID: 0}
    - target: {fileID: 224000013311149932, guid: 44c162440cb5f1842bcb040f8fb66783,
        type: 3}
      propertyPath: m_AnchoredPosition.x
      value: 74.899994
      objectReference: {fileID: 0}
    - target: {fileID: 224000013311149932, guid: 44c162440cb5f1842bcb040f8fb66783,
        type: 3}
      propertyPath: m_AnchoredPosition.y
      value: 40.799988
      objectReference: {fileID: 0}
    m_RemovedComponents: []
  m_SourcePrefab: {fileID: 100100000, guid: 44c162440cb5f1842bcb040f8fb66783, type: 3}
--- !u!1 &1407095665
GameObject:
  m_ObjectHideFlags: 0
  m_CorrespondingSourceObject: {fileID: 0}
  m_PrefabInstance: {fileID: 0}
  m_PrefabAsset: {fileID: 0}
  serializedVersion: 6
  m_Component:
  - component: {fileID: 1407095668}
  - component: {fileID: 1407095667}
  - component: {fileID: 1407095666}
  m_Layer: 0
  m_Name: EventSystem
  m_TagString: Untagged
  m_Icon: {fileID: 0}
  m_NavMeshLayer: 0
  m_StaticEditorFlags: 0
  m_IsActive: 1
--- !u!114 &1407095666
MonoBehaviour:
  m_ObjectHideFlags: 0
  m_CorrespondingSourceObject: {fileID: 0}
  m_PrefabInstance: {fileID: 0}
  m_PrefabAsset: {fileID: 0}
  m_GameObject: {fileID: 1407095665}
  m_Enabled: 1
  m_EditorHideFlags: 0
  m_Script: {fileID: 11500000, guid: 4f231c4fb786f3946a6b90b886c48677, type: 3}
  m_Name: 
  m_EditorClassIdentifier: 
  m_HorizontalAxis: Horizontal
  m_VerticalAxis: Vertical
  m_SubmitButton: Submit
  m_CancelButton: Cancel
  m_InputActionsPerSecond: 10
  m_RepeatDelay: 0.5
  m_ForceModuleActive: 0
--- !u!114 &1407095667
MonoBehaviour:
  m_ObjectHideFlags: 0
  m_CorrespondingSourceObject: {fileID: 0}
  m_PrefabInstance: {fileID: 0}
  m_PrefabAsset: {fileID: 0}
  m_GameObject: {fileID: 1407095665}
  m_Enabled: 1
  m_EditorHideFlags: 0
  m_Script: {fileID: 11500000, guid: 76c392e42b5098c458856cdf6ecaaaa1, type: 3}
  m_Name: 
  m_EditorClassIdentifier: 
  m_FirstSelected: {fileID: 0}
  m_sendNavigationEvents: 1
  m_DragThreshold: 5
--- !u!4 &1407095668
Transform:
  m_ObjectHideFlags: 0
  m_CorrespondingSourceObject: {fileID: 0}
  m_PrefabInstance: {fileID: 0}
  m_PrefabAsset: {fileID: 0}
  m_GameObject: {fileID: 1407095665}
  m_LocalRotation: {x: 0, y: 0, z: 0, w: 1}
  m_LocalPosition: {x: 0, y: 0, z: 0}
  m_LocalScale: {x: 1, y: 1, z: 1}
  m_Children: []
  m_Father: {fileID: 0}
  m_RootOrder: 3
  m_LocalEulerAnglesHint: {x: 0, y: 0, z: 0}
--- !u!1 &1412796838
GameObject:
  m_ObjectHideFlags: 43
  m_CorrespondingSourceObject: {fileID: 0}
  m_PrefabInstance: {fileID: 0}
  m_PrefabAsset: {fileID: 0}
  serializedVersion: 6
  m_Component:
  - component: {fileID: 1412796839}
  m_Layer: 5
  m_Name: New Game Object
  m_TagString: Untagged
  m_Icon: {fileID: 0}
  m_NavMeshLayer: 0
  m_StaticEditorFlags: 0
  m_IsActive: 1
--- !u!4 &1412796839
Transform:
  m_ObjectHideFlags: 43
  m_CorrespondingSourceObject: {fileID: 0}
  m_PrefabInstance: {fileID: 0}
  m_PrefabAsset: {fileID: 0}
  m_GameObject: {fileID: 1412796838}
  m_LocalRotation: {x: 0, y: 0, z: 0, w: 1}
  m_LocalPosition: {x: -120.33952, y: -53, z: 0}
  m_LocalScale: {x: 0.46861187, y: 0.46861187, z: 0.46861187}
  m_Children: []
  m_Father: {fileID: 169926961}
  m_RootOrder: 0
  m_LocalEulerAnglesHint: {x: 0, y: 0, z: 0}
--- !u!1 &1422985485
GameObject:
  m_ObjectHideFlags: 43
  m_CorrespondingSourceObject: {fileID: 0}
  m_PrefabInstance: {fileID: 0}
  m_PrefabAsset: {fileID: 0}
  serializedVersion: 6
  m_Component:
  - component: {fileID: 1422985486}
  m_Layer: 5
  m_Name: New Game Object
  m_TagString: Untagged
  m_Icon: {fileID: 0}
  m_NavMeshLayer: 0
  m_StaticEditorFlags: 0
  m_IsActive: 1
--- !u!4 &1422985486
Transform:
  m_ObjectHideFlags: 43
  m_CorrespondingSourceObject: {fileID: 0}
  m_PrefabInstance: {fileID: 0}
  m_PrefabAsset: {fileID: 0}
  m_GameObject: {fileID: 1422985485}
  m_LocalRotation: {x: 0, y: 0, z: 0, w: 1}
  m_LocalPosition: {x: -120.33952, y: -53, z: 0}
  m_LocalScale: {x: 0.46861187, y: 0.46861187, z: 0.46861187}
  m_Children:
  - {fileID: 169926961}
  m_Father: {fileID: 842919731}
  m_RootOrder: 0
  m_LocalEulerAnglesHint: {x: 0, y: 0, z: 0}
--- !u!1 &1907848625
GameObject:
  m_ObjectHideFlags: 0
  m_CorrespondingSourceObject: {fileID: 0}
  m_PrefabInstance: {fileID: 0}
  m_PrefabAsset: {fileID: 0}
  serializedVersion: 6
  m_Component:
  - component: {fileID: 1907848627}
  - component: {fileID: 1907848626}
  m_Layer: 5
  m_Name: GraphDataInitializer
  m_TagString: Untagged
  m_Icon: {fileID: 0}
  m_NavMeshLayer: 0
  m_StaticEditorFlags: 0
  m_IsActive: 1
--- !u!114 &1907848626
MonoBehaviour:
  m_ObjectHideFlags: 0
  m_CorrespondingSourceObject: {fileID: 0}
  m_PrefabInstance: {fileID: 0}
  m_PrefabAsset: {fileID: 0}
  m_GameObject: {fileID: 1907848625}
  m_Enabled: 1
  m_EditorHideFlags: 0
  m_Script: {fileID: 11500000, guid: 932bc7424c0ae484b9f7b8d1e8646e3f, type: 3}
  m_Name: 
  m_EditorClassIdentifier: 
  Graph: {fileID: 0}
  TotalPoints: 40
--- !u!224 &1907848627
RectTransform:
  m_ObjectHideFlags: 0
  m_CorrespondingSourceObject: {fileID: 0}
  m_PrefabInstance: {fileID: 0}
  m_PrefabAsset: {fileID: 0}
  m_GameObject: {fileID: 1907848625}
  m_LocalRotation: {x: -0, y: -0, z: -0, w: 1}
  m_LocalPosition: {x: 0, y: 0, z: 0}
  m_LocalScale: {x: 1, y: 1, z: 1}
  m_Children: []
  m_Father: {fileID: 0}
  m_RootOrder: 1
  m_LocalEulerAnglesHint: {x: 0, y: 0, z: 0}
  m_AnchorMin: {x: 0.5, y: 0.5}
  m_AnchorMax: {x: 0.5, y: 0.5}
  m_AnchoredPosition: {x: 425.5, y: 194}
  m_SizeDelta: {x: 100, y: 100}
  m_Pivot: {x: 0.5, y: 0.5}
--- !u!1001 &1917194731
PrefabInstance:
  m_ObjectHideFlags: 0
  serializedVersion: 2
  m_Modification:
    m_TransformParent: {fileID: 1226075348}
    m_Modifications:
    - target: {fileID: 114000010483641462, guid: 149c576c056be1345807a3dc94e006b2,
        type: 3}
      propertyPath: BarChart.Array.size
      value: 1
      objectReference: {fileID: 0}
    - target: {fileID: 114000010483641462, guid: 149c576c056be1345807a3dc94e006b2,
        type: 3}
      propertyPath: BarChart.Array.data[0]
      value: 
      objectReference: {fileID: 336153648}
    - target: {fileID: 114000011646866538, guid: 149c576c056be1345807a3dc94e006b2,
        type: 3}
      propertyPath: m_Color.b
      value: 1
      objectReference: {fileID: 0}
    - target: {fileID: 114000011646866538, guid: 149c576c056be1345807a3dc94e006b2,
        type: 3}
      propertyPath: m_Color.g
      value: 1
      objectReference: {fileID: 0}
    - target: {fileID: 114000011646866538, guid: 149c576c056be1345807a3dc94e006b2,
        type: 3}
      propertyPath: m_Color.r
      value: 1
      objectReference: {fileID: 0}
    - target: {fileID: 224000012685174106, guid: 149c576c056be1345807a3dc94e006b2,
        type: 3}
      propertyPath: m_Pivot.x
      value: 0.5
      objectReference: {fileID: 0}
    - target: {fileID: 224000012685174106, guid: 149c576c056be1345807a3dc94e006b2,
        type: 3}
      propertyPath: m_Pivot.y
      value: 1
      objectReference: {fileID: 0}
    - target: {fileID: 224000012685174106, guid: 149c576c056be1345807a3dc94e006b2,
        type: 3}
      propertyPath: m_RootOrder
      value: 2
      objectReference: {fileID: 0}
    - target: {fileID: 224000012685174106, guid: 149c576c056be1345807a3dc94e006b2,
        type: 3}
      propertyPath: m_AnchorMax.x
      value: 1
      objectReference: {fileID: 0}
    - target: {fileID: 224000012685174106, guid: 149c576c056be1345807a3dc94e006b2,
        type: 3}
      propertyPath: m_AnchorMax.y
      value: 0
      objectReference: {fileID: 0}
    - target: {fileID: 224000012685174106, guid: 149c576c056be1345807a3dc94e006b2,
        type: 3}
      propertyPath: m_AnchorMin.x
      value: 0
      objectReference: {fileID: 0}
    - target: {fileID: 224000012685174106, guid: 149c576c056be1345807a3dc94e006b2,
        type: 3}
      propertyPath: m_AnchorMin.y
      value: 0
      objectReference: {fileID: 0}
    - target: {fileID: 224000012685174106, guid: 149c576c056be1345807a3dc94e006b2,
        type: 3}
      propertyPath: m_SizeDelta.x
      value: 0
      objectReference: {fileID: 0}
    - target: {fileID: 224000012685174106, guid: 149c576c056be1345807a3dc94e006b2,
        type: 3}
      propertyPath: m_SizeDelta.y
      value: 33.200012
      objectReference: {fileID: 0}
    - target: {fileID: 224000012685174106, guid: 149c576c056be1345807a3dc94e006b2,
        type: 3}
      propertyPath: m_LocalPosition.x
      value: 0
      objectReference: {fileID: 0}
    - target: {fileID: 224000012685174106, guid: 149c576c056be1345807a3dc94e006b2,
        type: 3}
      propertyPath: m_LocalPosition.y
      value: 0
      objectReference: {fileID: 0}
    - target: {fileID: 224000012685174106, guid: 149c576c056be1345807a3dc94e006b2,
        type: 3}
      propertyPath: m_LocalPosition.z
      value: 0
      objectReference: {fileID: 0}
    - target: {fileID: 224000012685174106, guid: 149c576c056be1345807a3dc94e006b2,
        type: 3}
      propertyPath: m_LocalRotation.w
      value: 1
      objectReference: {fileID: 0}
    - target: {fileID: 224000012685174106, guid: 149c576c056be1345807a3dc94e006b2,
        type: 3}
      propertyPath: m_LocalRotation.x
      value: 0
      objectReference: {fileID: 0}
    - target: {fileID: 224000012685174106, guid: 149c576c056be1345807a3dc94e006b2,
        type: 3}
      propertyPath: m_LocalRotation.y
      value: 0
      objectReference: {fileID: 0}
    - target: {fileID: 224000012685174106, guid: 149c576c056be1345807a3dc94e006b2,
        type: 3}
      propertyPath: m_LocalRotation.z
      value: 0
      objectReference: {fileID: 0}
    - target: {fileID: 224000012685174106, guid: 149c576c056be1345807a3dc94e006b2,
        type: 3}
      propertyPath: m_AnchoredPosition.x
      value: 0
      objectReference: {fileID: 0}
    - target: {fileID: 224000012685174106, guid: 149c576c056be1345807a3dc94e006b2,
        type: 3}
      propertyPath: m_AnchoredPosition.y
      value: 33.200012
      objectReference: {fileID: 0}
    m_RemovedComponents: []
  m_SourcePrefab: {fileID: 100100000, guid: 149c576c056be1345807a3dc94e006b2, type: 3}
--- !u!224 &1917194732 stripped
RectTransform:
  m_CorrespondingSourceObject: {fileID: 224000012685174106, guid: 149c576c056be1345807a3dc94e006b2,
    type: 3}
  m_PrefabInstance: {fileID: 1917194731}
  m_PrefabAsset: {fileID: 0}
