%YAML 1.1
%TAG !u! tag:unity3d.com,2011:
--- !u!1 &121802
GameObject:
  m_ObjectHideFlags: 0
  m_CorrespondingSourceObject: {fileID: 0}
  m_PrefabInstance: {fileID: 0}
  m_PrefabAsset: {fileID: 0}
  serializedVersion: 6
  m_Component:
  - component: {fileID: 22469184}
  - component: {fileID: 11473812}
  - component: {fileID: 11405288}
  - component: {fileID: 11482860}
  - component: {fileID: 11407942}
  - component: {fileID: 11473682}
  - component: {fileID: 11482674}
  - component: {fileID: 11471072}
  m_Layer: 5
  m_Name: DefualtBarCategoryStyle2D
  m_TagString: Untagged
  m_Icon: {fileID: 0}
  m_NavMeshLayer: 0
  m_StaticEditorFlags: 0
  m_IsActive: 1
--- !u!224 &22469184
RectTransform:
  m_ObjectHideFlags: 0
  m_CorrespondingSourceObject: {fileID: 0}
  m_PrefabInstance: {fileID: 0}
  m_PrefabAsset: {fileID: 0}
  m_GameObject: {fileID: 121802}
  m_LocalRotation: {x: -0, y: -0, z: -0, w: 1}
  m_LocalPosition: {x: 0, y: 0, z: 0}
  m_LocalScale: {x: 1, y: 1, z: 1}
  m_Children:
  - {fileID: 486094}
  - {fileID: 7679335993070998865}
  m_Father: {fileID: 0}
  m_RootOrder: 0
  m_LocalEulerAnglesHint: {x: 0, y: 0, z: 0}
  m_AnchorMin: {x: 0, y: 0}
  m_AnchorMax: {x: 1, y: 1}
  m_AnchoredPosition: {x: 0, y: 0}
  m_SizeDelta: {x: -160, y: -160}
  m_Pivot: {x: 0.5, y: 0.5}
--- !u!114 &11473812
MonoBehaviour:
  m_ObjectHideFlags: 0
  m_CorrespondingSourceObject: {fileID: 0}
  m_PrefabInstance: {fileID: 0}
  m_PrefabAsset: {fileID: 0}
  m_GameObject: {fileID: 121802}
  m_Enabled: 1
  m_EditorHideFlags: 0
  m_Script: {fileID: 11500000, guid: acb1d1c592b0c794d8bff6d0a590986e, type: 3}
  m_Name: 
  m_EditorClassIdentifier: 
  mPreviewObject: {fileID: 0}
  OnRedraw:
    m_PersistentCalls:
      m_Calls: []
  keepOrthoSize: 0
  paperEffectText: 0
  vRSpaceText: 0
  vRSpaceScale: 0.1
  maintainLabelSize: 0
  viewType: 0
  negativeBars: 0
  stacked: 0
  BarClicked:
    m_PersistentCalls:
      m_Calls: []
  BarHovered:
    m_PersistentCalls:
      m_Calls: []
  NonHovered:
    m_PersistentCalls:
      m_Calls: []
  Data:
    mCategories:
    - Name: Category 1
      Materials:
        Normal: {fileID: 2100000, guid: f26b4f2440427244baeaf92e3d728aac, type: 2}
        Hover: {r: 0.9558824, g: 0.9558824, b: 0.9558824, a: 1}
        Selected: {r: 1, g: 1, b: 1, a: 1}
    - Name: Category 2
      Materials:
        Normal: {fileID: 2100000, guid: 62e40109c48fc034fb012259f25f07d4, type: 2}
        Hover: {r: 0.9529412, g: 0.9529412, b: 0.9529412, a: 1}
        Selected: {r: 1, g: 1, b: 1, a: 1}
    - Name: Category 3
      Materials:
        Normal: {fileID: 2100000, guid: e6c2ae142619a104a8ead89a089224f3, type: 2}
        Hover: {r: 0.9529412, g: 0.9529412, b: 0.9529412, a: 1}
        Selected: {r: 1, g: 1, b: 1, a: 1}
    mGroups:
    - Group 1
    - Group 2
    - Group 3
    mData:
    - GroupName: Group 1
      ColumnName: Category 1
      Amount: 5
    - GroupName: Group 1
      ColumnName: Category 2
      Amount: 3
    - GroupName: Group 1
      ColumnName: Category 3
      Amount: 1
    - GroupName: Group 2
      ColumnName: Category 1
      Amount: 7
    - GroupName: Group 2
      ColumnName: Category 2
      Amount: 5
    - GroupName: Group 2
      ColumnName: Category 3
      Amount: 3
    - GroupName: Group 3
      ColumnName: Category 1
      Amount: 9
    - GroupName: Group 3
      ColumnName: Category 2
      Amount: 7
    - GroupName: Group 3
      ColumnName: Category 3
      Amount: 5
    automaticMaxValue: 0
    maxValue: 10
    automaticMinValue: 0
    minValue: 0
  transitionTimeBetaFeature: -1
  heightRatio: 226.2
  totalWidth: 317.89
  totalDepth: 0
  fitToContainer: 0
  fitMargin:
    left: 0
    top: 0
    right: 0
    bottom: 0
  barPrefab: {fileID: 222000010169192002, guid: e0e962d45efcf3648931eb569595e722,
    type: 3}
  axisSeperation: 20
  barSeperation: 27.46
  groupSeperation: 99.8
  barSize: 23.37
  barFitType: 1
  barFitAlign: 2
--- !u!114 &11405288
MonoBehaviour:
  m_ObjectHideFlags: 0
  m_CorrespondingSourceObject: {fileID: 0}
  m_PrefabInstance: {fileID: 0}
  m_PrefabAsset: {fileID: 0}
  m_GameObject: {fileID: 121802}
  m_Enabled: 1
  m_EditorHideFlags: 0
  m_Script: {fileID: 11500000, guid: 5eb3e26fd06b41d4baa022120f5cd617, type: 3}
  m_Name: 
  m_EditorClassIdentifier: 
  textPrefab: {fileID: 114000014259531626, guid: 68948a5a024a9554389929d60ee952ea,
    type: 3}
  textFormat:
    prefix: 
    suffix: 
    customFormat: 
  fontSize: 14
  fontSharpness: 3
  seperation: 11.71
  location:
    Breadth: 0
    Depth: 0
  alignment: 0
  fractionDigits: 0
--- !u!114 &11482860
MonoBehaviour:
  m_ObjectHideFlags: 0
  m_CorrespondingSourceObject: {fileID: 0}
  m_PrefabInstance: {fileID: 0}
  m_PrefabAsset: {fileID: 0}
  m_GameObject: {fileID: 121802}
  m_Enabled: 1
  m_EditorHideFlags: 0
  m_Script: {fileID: 11500000, guid: 8a5935733d0eb5b48ba1db228c83f0f0, type: 3}
  m_Name: 
  m_EditorClassIdentifier: 
  textPrefab: {fileID: 114000014259531626, guid: 68948a5a024a9554389929d60ee952ea,
    type: 3}
  textFormat:
    prefix: 
    suffix: 
    customFormat: 
  fontSize: 15
  fontSharpness: 3
  seperation: 8.73
  location:
    Breadth: 0
    Depth: -25.2
  alignment: 0
--- !u!114 &11407942
MonoBehaviour:
  m_ObjectHideFlags: 0
  m_CorrespondingSourceObject: {fileID: 0}
  m_PrefabInstance: {fileID: 0}
  m_PrefabAsset: {fileID: 0}
  m_GameObject: {fileID: 121802}
  m_Enabled: 1
  m_EditorHideFlags: 0
  m_Script: {fileID: 11500000, guid: 683c1c28d013cce4c9128c952dbdca81, type: 3}
  m_Name: 
  m_EditorClassIdentifier: 
  textPrefab: {fileID: 114000014259531626, guid: 68948a5a024a9554389929d60ee952ea,
    type: 3}
  textFormat:
    prefix: 
    suffix: 
    customFormat: 
  fontSize: 4
  fontSharpness: 3
  seperation: -9.78
  location:
    Breadth: 0
    Depth: 0
  alignment: 1
  visibleLabels: 0
--- !u!114 &11473682
MonoBehaviour:
  m_ObjectHideFlags: 0
  m_CorrespondingSourceObject: {fileID: 0}
  m_PrefabInstance: {fileID: 0}
  m_PrefabAsset: {fileID: 0}
  m_GameObject: {fileID: 121802}
  m_Enabled: 0
  m_EditorHideFlags: 0
  m_Script: {fileID: 11500000, guid: 08395b16192f9114e8ad4953e48f90bd, type: 3}
  m_Name: 
  m_EditorClassIdentifier: 
  SimpleView: 1
  format: 0
  depth:
    Automatic: 0
    Value: 0
  mainDivisions:
    messure: 0
    unitsPerDivision: 0
    total: 3
    material: {fileID: 0}
    materialTiling:
      EnableTiling: 0
      TileFactor: 100
    markBackLength:
      Automatic: 1
      Value: 0.5
    markLength:
      Automatic: 1
      Value: 0.5
    markDepth:
      Automatic: 1
      Value: 0.5
    markThickness: 0.83
    textPrefab: {fileID: 0}
    textPrefix: 
    textSuffix: 
    fractionDigits: 2
    fontSize: 12
    fontSharpness: 3
    textDepth: 0
    textSeperation: 0
    alignment: 1
  subDivisions:
    messure: 0
    unitsPerDivision: 0
    total: 3
    material: {fileID: 0}
    materialTiling:
      EnableTiling: 0
      TileFactor: 100
    markBackLength:
      Automatic: 1
      Value: 0.5
    markLength:
      Automatic: 1
      Value: 0.5
    markDepth:
      Automatic: 1
      Value: 0.5
    markThickness: 0.83
    textPrefab: {fileID: 0}
    textPrefix: 
    textSuffix: 
    fractionDigits: 2
    fontSize: 12
    fontSharpness: 3
    textDepth: 0
    textSeperation: 0
    alignment: 1
--- !u!114 &11482674
MonoBehaviour:
  m_ObjectHideFlags: 0
  m_CorrespondingSourceObject: {fileID: 0}
  m_PrefabInstance: {fileID: 0}
  m_PrefabAsset: {fileID: 0}
  m_GameObject: {fileID: 121802}
  m_Enabled: 1
  m_EditorHideFlags: 0
  m_Script: {fileID: 11500000, guid: 7598682dc3bb9174d9546fe226cab95a, type: 3}
  m_Name: 
  m_EditorClassIdentifier: 
  SimpleView: 1
  format: 0
  depth:
    Automatic: 0
    Value: 0
  mainDivisions:
    messure: 0
    unitsPerDivision: 0
    total: 3
    material: {fileID: 2100000, guid: efebb8411b3539a4299fc48246fd2aff, type: 2}
    materialTiling:
      EnableTiling: 0
      TileFactor: 5
    markBackLength:
      Automatic: 1
      Value: 0.5
    markLength:
      Automatic: 1
      Value: 0.5
    markDepth:
      Automatic: 1
      Value: 0.5
    markThickness: 3
    textPrefab: {fileID: 114000014259531626, guid: 68948a5a024a9554389929d60ee952ea,
      type: 3}
    textPrefix: 
    textSuffix: 
    fractionDigits: 2
    fontSize: 12
    fontSharpness: 3
    textDepth: 0
    textSeperation: -10.56
    alignment: 1
  subDivisions:
    messure: 0
    unitsPerDivision: 0
    total: 3
    material: {fileID: 2100000, guid: efebb8411b3539a4299fc48246fd2aff, type: 2}
    materialTiling:
      EnableTiling: 0
      TileFactor: 5
    markBackLength:
      Automatic: 1
      Value: 0.5
    markLength:
      Automatic: 1
      Value: 0.5
    markDepth:
      Automatic: 1
      Value: 0.5
    markThickness: 1
    textPrefab: {fileID: 114000014259531626, guid: 68948a5a024a9554389929d60ee952ea,
      type: 3}
    textPrefix: 
    textSuffix: 
    fractionDigits: 2
    fontSize: 12
    fontSharpness: 3
    textDepth: 0
    textSeperation: -10.56
    alignment: 1
--- !u!114 &11471072
MonoBehaviour:
  m_ObjectHideFlags: 0
  m_CorrespondingSourceObject: {fileID: 0}
  m_PrefabInstance: {fileID: 0}
  m_PrefabAsset: {fileID: 0}
  m_GameObject: {fileID: 121802}
  m_Enabled: 1
  m_EditorHideFlags: 0
  m_Script: {fileID: 11500000, guid: 8fa3c1507f66ca24fa9c929b5fae69a5, type: 3}
  m_Name: 
  m_EditorClassIdentifier: 
  Curve:
    serializedVersion: 2
    m_Curve:
    - serializedVersion: 3
      time: 0
      value: 0
      inSlope: 2
      outSlope: 2
      tangentMode: 0
      weightedMode: 0
      inWeight: 0.33333334
      outWeight: 0.33333334
    - serializedVersion: 3
      time: 1
      value: 1
      inSlope: 0
      outSlope: 0
      tangentMode: 0
      weightedMode: 0
      inWeight: 0.33333334
      outWeight: 0.33333334
    m_PreInfinity: 2
    m_PostInfinity: 2
    m_RotationOrder: 4
  AnimateOnStart: 1
  AnimationTime: 3
--- !u!1 &153640
GameObject:
  m_ObjectHideFlags: 0
  m_CorrespondingSourceObject: {fileID: 0}
  m_PrefabInstance: {fileID: 0}
  m_PrefabAsset: {fileID: 0}
  serializedVersion: 6
  m_Component:
  - component: {fileID: 486094}
  m_Layer: 0
  m_Name: New Game Object
  m_TagString: Untagged
  m_Icon: {fileID: 0}
  m_NavMeshLayer: 0
  m_StaticEditorFlags: 0
  m_IsActive: 1
--- !u!4 &486094
Transform:
  m_ObjectHideFlags: 0
  m_CorrespondingSourceObject: {fileID: 0}
  m_PrefabInstance: {fileID: 0}
  m_PrefabAsset: {fileID: 0}
  m_GameObject: {fileID: 153640}
  m_LocalRotation: {x: 0, y: 0, z: 0, w: 1}
  m_LocalPosition: {x: -172.1553, y: -122.50001, z: 0}
  m_LocalScale: {x: 1.0831124, y: 1.0831124, z: 1.0831124}
  m_Children: []
  m_Father: {fileID: 22469184}
  m_RootOrder: 0
  m_LocalEulerAnglesHint: {x: 0, y: 0, z: 0}
--- !u!1 &7752625293702094914
GameObject:
  m_ObjectHideFlags: 0
  m_CorrespondingSourceObject: {fileID: 0}
  m_PrefabInstance: {fileID: 0}
  m_PrefabAsset: {fileID: 0}
  serializedVersion: 6
  m_Component:
  - component: {fileID: 7679335993070998865}
  - component: {fileID: 4956437996500444851}
  - component: {fileID: 979667108328096308}
  m_Layer: 0
  m_Name: textController
  m_TagString: EditorOnly
  m_Icon: {fileID: 0}
  m_NavMeshLayer: 0
  m_StaticEditorFlags: 0
  m_IsActive: 1
--- !u!224 &7679335993070998865
RectTransform:
  m_ObjectHideFlags: 0
  m_CorrespondingSourceObject: {fileID: 0}
  m_PrefabInstance: {fileID: 0}
  m_PrefabAsset: {fileID: 0}
  m_GameObject: {fileID: 7752625293702094914}
  m_LocalRotation: {x: 0, y: 0, z: 0, w: 1}
  m_LocalPosition: {x: 0, y: 0, z: 0}
  m_LocalScale: {x: 1, y: 1, z: 1}
  m_Children: []
  m_Father: {fileID: 22469184}
  m_RootOrder: 1
  m_LocalEulerAnglesHint: {x: 0, y: 0, z: 0}
  m_AnchorMin: {x: 0.5, y: 0.5}
  m_AnchorMax: {x: 0.5, y: 0.5}
  m_AnchoredPosition: {x: 0, y: 0}
  m_SizeDelta: {x: 100, y: 100}
  m_Pivot: {x: 0.5, y: 0.5}
--- !u!114 &4956437996500444851
MonoBehaviour:
  m_ObjectHideFlags: 0
  m_CorrespondingSourceObject: {fileID: 0}
  m_PrefabInstance: {fileID: 0}
  m_PrefabAsset: {fileID: 0}
  m_GameObject: {fileID: 7752625293702094914}
  m_Enabled: 1
  m_EditorHideFlags: 0
  m_Script: {fileID: 11500000, guid: 55b5a59897c650342a9b23ff348a9992, type: 3}
  m_Name: 
  m_EditorClassIdentifier: 
--- !u!114 &979667108328096308
MonoBehaviour:
  m_ObjectHideFlags: 0
  m_CorrespondingSourceObject: {fileID: 0}
  m_PrefabInstance: {fileID: 0}
  m_PrefabAsset: {fileID: 0}
  m_GameObject: {fileID: 7752625293702094914}
  m_Enabled: 1
  m_EditorHideFlags: 0
  m_Script: {fileID: 11500000, guid: f8c8bf670921e114bbea10f451c86392, type: 3}
  m_Name: 
  m_EditorClassIdentifier: 
  Camera: {fileID: 0}
  PlaneDistance: 20
