%YAML 1.1
%TAG !u! tag:unity3d.com,2011:
--- !u!1 &195278
GameObject:
  m_ObjectHideFlags: 0
  m_CorrespondingSourceObject: {fileID: 0}
  m_PrefabInstance: {fileID: 0}
  m_PrefabAsset: {fileID: 0}
  serializedVersion: 6
  m_Component:
  - component: {fileID: 22487226}
  - component: {fileID: 22232474}
  - component: {fileID: 11408442}
  - component: {fileID: 11447638}
  - component: {fileID: 11495026}
  - component: {fileID: 11418654}
  m_Layer: 5
  m_Name: DefualtRadarCategoryStyle2D
  m_TagString: Untagged
  m_Icon: {fileID: 0}
  m_NavMeshLayer: 0
  m_StaticEditorFlags: 0
  m_IsActive: 1
--- !u!224 &22487226
RectTransform:
  m_ObjectHideFlags: 0
  m_CorrespondingSourceObject: {fileID: 0}
  m_PrefabInstance: {fileID: 0}
  m_PrefabAsset: {fileID: 0}
  m_GameObject: {fileID: 195278}
  m_LocalRotation: {x: 0, y: 0, z: 0, w: 1}
  m_LocalPosition: {x: 0, y: 0, z: 0}
  m_LocalScale: {x: 1, y: 1, z: 1}
  m_Children:
  - {fileID: 7887338064699312444}
  m_Father: {fileID: 0}
  m_RootOrder: 0
  m_LocalEulerAnglesHint: {x: 0, y: 0, z: 0}
  m_AnchorMin: {x: 0.5, y: 0.5}
  m_AnchorMax: {x: 0.5, y: 0.5}
  m_AnchoredPosition: {x: 0, y: 0}
  m_SizeDelta: {x: 400, y: 400}
  m_Pivot: {x: 0.5, y: 0.5}
--- !u!222 &22232474
CanvasRenderer:
  m_ObjectHideFlags: 0
  m_CorrespondingSourceObject: {fileID: 0}
  m_PrefabInstance: {fileID: 0}
  m_PrefabAsset: {fileID: 0}
  m_GameObject: {fileID: 195278}
  m_CullTransparentMesh: 0
--- !u!114 &11408442
MonoBehaviour:
  m_ObjectHideFlags: 0
  m_CorrespondingSourceObject: {fileID: 0}
  m_PrefabInstance: {fileID: 0}
  m_PrefabAsset: {fileID: 0}
  m_GameObject: {fileID: 195278}
  m_Enabled: 1
  m_EditorHideFlags: 0
  m_Script: {fileID: 11500000, guid: c464cf59e9a4ba541a0d4e7075fca70a, type: 3}
  m_Name: 
  m_EditorClassIdentifier: 
  mPreviewObject: {fileID: 0}
  OnRedraw:
    m_PersistentCalls:
      m_Calls: []
  keepOrthoSize: 0
  paperEffectText: 0
  vRSpaceText: 0
  vRSpaceScale: 0.1
  maintainLabelSize: 0
  radius: 133.77
  angle: 18.13
  axisPointMaterial: {fileID: 0}
  axisLineMaterial: {fileID: 2100000, guid: e4e16f82fb266f240aa11a8fc29bde78, type: 2}
  axisThickness: 1.22
  axisPointSize: 1
  axisAdd: 0
  totalAxisDevisions: 5
  PointClicked:
    m_PersistentCalls:
      m_Calls: []
  PointHovered:
    m_PersistentCalls:
      m_Calls: []
  NonHovered:
    m_PersistentCalls:
      m_Calls: []
  Data:
    mCategories:
    - Name: Player 1
      Seperation: 0
      Curve: 0
      FillMaterial: {fileID: 2100000, guid: b8ab27c4271a3e64d8491c967d324fd0, type: 2}
      FillSmoothing: 5
      LineHover: {fileID: 11494010, guid: 87cd6d8b7ca9527449e32ecefc4015c5, type: 3}
      LineThickness: 2.23
      LineMaterial: {fileID: 2100000, guid: e4e16f82fb266f240aa11a8fc29bde78, type: 2}
      PointPrefab: {fileID: 0}
      PointHover: {fileID: 11475216, guid: 57ee497f5c86d764fa20628075109b20, type: 3}
      PointSize: 9.42
      PointMaterial: {fileID: 2100000, guid: b44e6f88dc1476049bfcb25ce2908c91, type: 2}
      MaxValue: -1
    - Name: Player 2
      Seperation: 0
      Curve: 0
      FillMaterial: {fileID: 2100000, guid: a6b1676c2a0dde749b07f353eead85ee, type: 2}
      FillSmoothing: 5
      LineHover: {fileID: 11494010, guid: 87cd6d8b7ca9527449e32ecefc4015c5, type: 3}
      LineThickness: 3.26
      LineMaterial: {fileID: 2100000, guid: e4e16f82fb266f240aa11a8fc29bde78, type: 2}
      PointPrefab: {fileID: 0}
      PointHover: {fileID: 11475216, guid: 57ee497f5c86d764fa20628075109b20, type: 3}
      PointSize: 11.5
      PointMaterial: {fileID: 2100000, guid: be1ca05f8d1cf90449194e1af4839df0, type: 2}
      MaxValue: -1
    - Name: Player 3
      Seperation: 0
      Curve: 0
      FillMaterial: {fileID: 2100000, guid: a6b1676c2a0dde749b07f353eead85ee, type: 2}
      FillSmoothing: 5
      LineHover: {fileID: 11494010, guid: 87cd6d8b7ca9527449e32ecefc4015c5, type: 3}
      LineThickness: 3.26
      LineMaterial: {fileID: 2100000, guid: e4e16f82fb266f240aa11a8fc29bde78, type: 2}
      PointPrefab: {fileID: 0}
      PointHover: {fileID: 11475216, guid: 57ee497f5c86d764fa20628075109b20, type: 3}
      PointSize: 11.5
      PointMaterial: {fileID: 2100000, guid: be1ca05f8d1cf90449194e1af4839df0, type: 2}
      MaxValue: -1
    - Name: Player 4
      Seperation: 0
      Curve: 0
      FillMaterial: {fileID: 2100000, guid: a6b1676c2a0dde749b07f353eead85ee, type: 2}
      FillSmoothing: 5
      LineHover: {fileID: 11494010, guid: 87cd6d8b7ca9527449e32ecefc4015c5, type: 3}
      LineThickness: 3.26
      LineMaterial: {fileID: 2100000, guid: e4e16f82fb266f240aa11a8fc29bde78, type: 2}
      PointPrefab: {fileID: 0}
      PointHover: {fileID: 11475216, guid: 57ee497f5c86d764fa20628075109b20, type: 3}
      PointSize: 11.5
      PointMaterial: {fileID: 2100000, guid: be1ca05f8d1cf90449194e1af4839df0, type: 2}
      MaxValue: -1
    - Name: Player 5
      Seperation: 0
      Curve: 0
      FillMaterial: {fileID: 2100000, guid: a6b1676c2a0dde749b07f353eead85ee, type: 2}
      FillSmoothing: 5
      LineHover: {fileID: 11494010, guid: 87cd6d8b7ca9527449e32ecefc4015c5, type: 3}
      LineThickness: 3.26
      LineMaterial: {fileID: 2100000, guid: e4e16f82fb266f240aa11a8fc29bde78, type: 2}
      PointPrefab: {fileID: 0}
      PointHover: {fileID: 11475216, guid: 57ee497f5c86d764fa20628075109b20, type: 3}
      PointSize: 11.5
      PointMaterial: {fileID: 2100000, guid: be1ca05f8d1cf90449194e1af4839df0, type: 2}
      MaxValue: -1
    mGroups:
    - A
    - B
    - C
    - d
    - e
    mData:
    - GroupName: A
      ColumnName: Player 1
      Amount: 5
    - GroupName: A
      ColumnName: Player 2
      Amount: 1
    - GroupName: A
      ColumnName: Player 3
      Amount: 0
    - GroupName: A
      ColumnName: Player 4
      Amount: 0
    - GroupName: A
      ColumnName: Player 5
      Amount: 0
    - GroupName: B
      ColumnName: Player 1
      Amount: 6
    - GroupName: B
      ColumnName: Player 2
      Amount: 2
    - GroupName: B
      ColumnName: Player 3
      Amount: 0
    - GroupName: B
      ColumnName: Player 4
      Amount: 0
    - GroupName: B
      ColumnName: Player 5
      Amount: 0
    - GroupName: C
      ColumnName: Player 1
      Amount: 7
    - GroupName: C
      ColumnName: Player 2
      Amount: 3
    - GroupName: C
      ColumnName: Player 3
      Amount: 0
    - GroupName: C
      ColumnName: Player 4
      Amount: 0
    - GroupName: C
      ColumnName: Player 5
      Amount: 0
    - GroupName: d
      ColumnName: Player 1
      Amount: 8
    - GroupName: d
      ColumnName: Player 2
      Amount: 4
    - GroupName: d
      ColumnName: Player 3
      Amount: 0
    - GroupName: d
      ColumnName: Player 4
      Amount: 0
    - GroupName: d
      ColumnName: Player 5
      Amount: 0
    - GroupName: e
      ColumnName: Player 1
      Amount: 3
    - GroupName: e
      ColumnName: Player 2
      Amount: 6
    - GroupName: e
      ColumnName: Player 3
      Amount: 0
    - GroupName: e
      ColumnName: Player 4
      Amount: 0
    - GroupName: e
      ColumnName: Player 5
      Amount: 0
    automaticMaxValue: 0
    maxValue: 10
    automaticMinValue: 0
    minValue: 0
--- !u!114 &11447638
MonoBehaviour:
  m_ObjectHideFlags: 0
  m_CorrespondingSourceObject: {fileID: 0}
  m_PrefabInstance: {fileID: 0}
  m_PrefabAsset: {fileID: 0}
  m_GameObject: {fileID: 195278}
  m_Enabled: 1
  m_EditorHideFlags: 0
  m_Script: {fileID: 11500000, guid: 8a5935733d0eb5b48ba1db228c83f0f0, type: 3}
  m_Name: 
  m_EditorClassIdentifier: 
  textPrefab: {fileID: 0}
  textFormat:
    prefix: 
    suffix: 
    customFormat: 
  fontSize: 19
  fontSharpness: 3
  seperation: 16.05
  location:
    Breadth: 0
    Depth: 0
  alignment: 0
--- !u!114 &11495026
MonoBehaviour:
  m_ObjectHideFlags: 0
  m_CorrespondingSourceObject: {fileID: 0}
  m_PrefabInstance: {fileID: 0}
  m_PrefabAsset: {fileID: 0}
  m_GameObject: {fileID: 195278}
  m_Enabled: 1
  m_EditorHideFlags: 0
  m_Script: {fileID: 11500000, guid: 5eb3e26fd06b41d4baa022120f5cd617, type: 3}
  m_Name: 
  m_EditorClassIdentifier: 
  textPrefab: {fileID: 0}
  textFormat:
    prefix: 
    suffix: 
    customFormat: 
  fontSize: 20
  fontSharpness: 3
  seperation: 3.37
  location:
    Breadth: 166.1
    Depth: 0
  alignment: 0
  fractionDigits: 0
--- !u!114 &11418654
MonoBehaviour:
  m_ObjectHideFlags: 0
  m_CorrespondingSourceObject: {fileID: 0}
  m_PrefabInstance: {fileID: 0}
  m_PrefabAsset: {fileID: 0}
  m_GameObject: {fileID: 195278}
  m_Enabled: 1
  m_EditorHideFlags: 0
  m_Script: {fileID: 11500000, guid: 683c1c28d013cce4c9128c952dbdca81, type: 3}
  m_Name: 
  m_EditorClassIdentifier: 
  textPrefab: {fileID: 114000011523374616, guid: 7c86db16ee4151f4d9ed59479b2fdfbf,
    type: 3}
  textFormat:
    prefix: 
    suffix: 
    customFormat: 
  fontSize: 14
  fontSharpness: 1
  seperation: 20
  location:
    Breadth: 0
    Depth: 0
  alignment: 0
  visibleLabels: 0
--- !u!1 &3986826479010732729
GameObject:
  m_ObjectHideFlags: 0
  m_CorrespondingSourceObject: {fileID: 0}
  m_PrefabInstance: {fileID: 0}
  m_PrefabAsset: {fileID: 0}
  serializedVersion: 6
  m_Component:
  - component: {fileID: 7887338064699312444}
  - component: {fileID: 5115683439905427208}
  - component: {fileID: 5511172839786161893}
  m_Layer: 0
  m_Name: textController
  m_TagString: EditorOnly
  m_Icon: {fileID: 0}
  m_NavMeshLayer: 0
  m_StaticEditorFlags: 0
  m_IsActive: 1
--- !u!224 &7887338064699312444
RectTransform:
  m_ObjectHideFlags: 0
  m_CorrespondingSourceObject: {fileID: 0}
  m_PrefabInstance: {fileID: 0}
  m_PrefabAsset: {fileID: 0}
  m_GameObject: {fileID: 3986826479010732729}
  m_LocalRotation: {x: 0, y: 0, z: 0, w: 1}
  m_LocalPosition: {x: 0, y: 0, z: 0}
  m_LocalScale: {x: 1, y: 1, z: 1}
  m_Children: []
  m_Father: {fileID: 22487226}
  m_RootOrder: 0
  m_LocalEulerAnglesHint: {x: 0, y: 0, z: 0}
  m_AnchorMin: {x: 0.5, y: 0.5}
  m_AnchorMax: {x: 0.5, y: 0.5}
  m_AnchoredPosition: {x: 0, y: 0}
  m_SizeDelta: {x: 100, y: 100}
  m_Pivot: {x: 0.5, y: 0.5}
--- !u!114 &5115683439905427208
MonoBehaviour:
  m_ObjectHideFlags: 0
  m_CorrespondingSourceObject: {fileID: 0}
  m_PrefabInstance: {fileID: 0}
  m_PrefabAsset: {fileID: 0}
  m_GameObject: {fileID: 3986826479010732729}
  m_Enabled: 1
  m_EditorHideFlags: 0
  m_Script: {fileID: 11500000, guid: 55b5a59897c650342a9b23ff348a9992, type: 3}
  m_Name: 
  m_EditorClassIdentifier: 
--- !u!114 &5511172839786161893
MonoBehaviour:
  m_ObjectHideFlags: 0
  m_CorrespondingSourceObject: {fileID: 0}
  m_PrefabInstance: {fileID: 0}
  m_PrefabAsset: {fileID: 0}
  m_GameObject: {fileID: 3986826479010732729}
  m_Enabled: 1
  m_EditorHideFlags: 0
  m_Script: {fileID: 11500000, guid: f8c8bf670921e114bbea10f451c86392, type: 3}
  m_Name: 
  m_EditorClassIdentifier: 
  Camera: {fileID: 0}
  PlaneDistance: 20
