%YAML 1.1
%TAG !u! tag:unity3d.com,2011:
--- !u!29 &1
OcclusionCullingSettings:
  m_ObjectHideFlags: 0
  serializedVersion: 2
  m_OcclusionBakeSettings:
    smallestOccluder: 5
    smallestHole: 0.25
    backfaceThreshold: 100
  m_SceneGUID: 00000000000000000000000000000000
  m_OcclusionCullingData: {fileID: 0}
--- !u!104 &2
RenderSettings:
  m_ObjectHideFlags: 0
  serializedVersion: 9
  m_Fog: 0
  m_FogColor: {r: 0.5, g: 0.5, b: 0.5, a: 1}
  m_FogMode: 3
  m_FogDensity: 0.01
  m_LinearFogStart: 0
  m_LinearFogEnd: 300
  m_AmbientSkyColor: {r: 0.212, g: 0.227, b: 0.259, a: 1}
  m_AmbientEquatorColor: {r: 0.114, g: 0.125, b: 0.133, a: 1}
  m_AmbientGroundColor: {r: 0.047, g: 0.043, b: 0.035, a: 1}
  m_AmbientIntensity: 1
  m_AmbientMode: 0
  m_SubtractiveShadowColor: {r: 0.42, g: 0.478, b: 0.627, a: 1}
  m_SkyboxMaterial: {fileID: 10304, guid: 0000000000000000f000000000000000, type: 0}
  m_HaloStrength: 0.5
  m_FlareStrength: 1
  m_FlareFadeSpeed: 3
  m_HaloTexture: {fileID: 0}
  m_SpotCookie: {fileID: 10001, guid: 0000000000000000e000000000000000, type: 0}
  m_DefaultReflectionMode: 0
  m_DefaultReflectionResolution: 128
  m_ReflectionBounces: 1
  m_ReflectionIntensity: 1
  m_CustomReflection: {fileID: 0}
  m_Sun: {fileID: 0}
  m_IndirectSpecularColor: {r: 0, g: 0, b: 0, a: 1}
  m_UseRadianceAmbientProbe: 0
--- !u!157 &3
LightmapSettings:
  m_ObjectHideFlags: 0
  serializedVersion: 11
  m_GIWorkflowMode: 0
  m_GISettings:
    serializedVersion: 2
    m_BounceScale: 1
    m_IndirectOutputScale: 1
    m_AlbedoBoost: 1
    m_EnvironmentLightingMode: 0
    m_EnableBakedLightmaps: 1
    m_EnableRealtimeLightmaps: 1
  m_LightmapEditorSettings:
    serializedVersion: 12
    m_Resolution: 2
    m_BakeResolution: 40
    m_AtlasSize: 1024
    m_AO: 1
    m_AOMaxDistance: 1
    m_CompAOExponent: 1
    m_CompAOExponentDirect: 0
    m_ExtractAmbientOcclusion: 0
    m_Padding: 2
    m_LightmapParameters: {fileID: 0}
    m_LightmapsBakeMode: 1
    m_TextureCompression: 1
    m_FinalGather: 0
    m_FinalGatherFiltering: 1
    m_FinalGatherRayCount: 256
    m_ReflectionCompression: 2
    m_MixedBakeMode: 1
    m_BakeBackend: 0
    m_PVRSampling: 1
    m_PVRDirectSampleCount: 32
    m_PVRSampleCount: 512
    m_PVRBounces: 2
    m_PVREnvironmentSampleCount: 512
    m_PVREnvironmentReferencePointCount: 2048
    m_PVRFilteringMode: 0
    m_PVRDenoiserTypeDirect: 0
    m_PVRDenoiserTypeIndirect: 0
    m_PVRDenoiserTypeAO: 0
    m_PVRFilterTypeDirect: 0
    m_PVRFilterTypeIndirect: 0
    m_PVRFilterTypeAO: 0
    m_PVREnvironmentMIS: 0
    m_PVRCulling: 1
    m_PVRFilteringGaussRadiusDirect: 1
    m_PVRFilteringGaussRadiusIndirect: 5
    m_PVRFilteringGaussRadiusAO: 2
    m_PVRFilteringAtrousPositionSigmaDirect: 0.5
    m_PVRFilteringAtrousPositionSigmaIndirect: 2
    m_PVRFilteringAtrousPositionSigmaAO: 1
    m_ExportTrainingData: 0
    m_TrainingDataDestination: TrainingData
    m_LightProbeSampleCountMultiplier: 4
  m_LightingDataAsset: {fileID: 0}
  m_UseShadowmask: 0
--- !u!196 &4
NavMeshSettings:
  serializedVersion: 2
  m_ObjectHideFlags: 0
  m_BuildSettings:
    serializedVersion: 2
    agentTypeID: 0
    agentRadius: 0.5
    agentHeight: 2
    agentSlope: 45
    agentClimb: 0.4
    ledgeDropHeight: 0
    maxJumpAcrossDistance: 0
    minRegionArea: 2
    manualCellSize: 0
    cellSize: 0.16666667
    manualTileSize: 0
    tileSize: 256
    accuratePlacement: 0
    debug:
      m_Flags: 0
  m_NavMeshData: {fileID: 0}
--- !u!1 &336153646
GameObject:
  m_ObjectHideFlags: 0
  m_CorrespondingSourceObject: {fileID: 0}
  m_PrefabInstance: {fileID: 0}
  m_PrefabAsset: {fileID: 0}
  serializedVersion: 6
  m_Component:
  - component: {fileID: 336153647}
  - component: {fileID: 336153648}
  - component: {fileID: 336153654}
  - component: {fileID: 336153653}
  - component: {fileID: 336153652}
  - component: {fileID: 336153651}
  - component: {fileID: 336153650}
  m_Layer: 5
  m_Name: BarCanvasMultiple
  m_TagString: Untagged
  m_Icon: {fileID: 0}
  m_NavMeshLayer: 0
  m_StaticEditorFlags: 0
  m_IsActive: 1
--- !u!224 &336153647
RectTransform:
  m_ObjectHideFlags: 0
  m_CorrespondingSourceObject: {fileID: 0}
  m_PrefabInstance: {fileID: 0}
  m_PrefabAsset: {fileID: 0}
  m_GameObject: {fileID: 336153646}
  m_LocalRotation: {x: 0, y: 0, z: 0, w: 1}
  m_LocalPosition: {x: 0, y: 0, z: 0}
  m_LocalScale: {x: 1, y: 1, z: 1}
  m_Children:
  - {fileID: 1414321158}
  m_Father: {fileID: 1299473804}
  m_RootOrder: 0
  m_LocalEulerAnglesHint: {x: 0, y: 0, z: 0}
  m_AnchorMin: {x: 0, y: 0}
  m_AnchorMax: {x: 1, y: 1}
  m_AnchoredPosition: {x: 0, y: 0}
  m_SizeDelta: {x: 0, y: 0}
  m_Pivot: {x: 0.5, y: 0.5}
--- !u!114 &336153648
MonoBehaviour:
  m_ObjectHideFlags: 0
  m_CorrespondingSourceObject: {fileID: 0}
  m_PrefabInstance: {fileID: 0}
  m_PrefabAsset: {fileID: 0}
  m_GameObject: {fileID: 336153646}
  m_Enabled: 1
  m_EditorHideFlags: 0
  m_Script: {fileID: 11500000, guid: acb1d1c592b0c794d8bff6d0a590986e, type: 3}
  m_Name: 
  m_EditorClassIdentifier: 
  mPreviewObject: {fileID: 0}
  OnRedraw:
    m_PersistentCalls:
      m_Calls: []
  keepOrthoSize: 0
  paperEffectText: 0
  vRSpaceText: 0
  vRSpaceScale: 0.1
  maintainLabelSize: 0
  viewType: 0
  negativeBars: 0
  stacked: 0
  BarClicked:
    m_PersistentCalls:
      m_Calls: []
  BarHovered:
    m_PersistentCalls:
      m_Calls: []
  NonHovered:
    m_PersistentCalls:
      m_Calls: []
  Data:
    mCategories:
    - Name: Player 1
      Materials:
        Normal: {fileID: 2100000, guid: 1f9e60d530535f94d95be566c4085e9e, type: 2}
        Hover: {r: 0.9558824, g: 0.9558824, b: 0.9558824, a: 1}
        Selected: {r: 1, g: 1, b: 1, a: 1}
    - Name: Player 2
      Materials:
        Normal: {fileID: 2100000, guid: c6a484c3764ff1844bff51f0d4874973, type: 2}
        Hover: {r: 0.9529412, g: 0.9529412, b: 0.9529412, a: 1}
        Selected: {r: 1, g: 1, b: 1, a: 1}
    - Name: Player 3
      Materials:
        Normal: {fileID: 2100000, guid: 1a6185b0a5845ed44ae78c6570343ed9, type: 2}
        Hover: {r: 0.9529412, g: 0.9529412, b: 0.9529412, a: 1}
        Selected: {r: 1, g: 1, b: 1, a: 1}
    mGroups:
    - Value 1
    - Value 2
    - Value 3
    mData:
    - GroupName: Value 1
      ColumnName: Player 1
      Amount: 1
    - GroupName: Value 1
      ColumnName: Player 2
      Amount: 1
    - GroupName: Value 1
      ColumnName: Player 3
      Amount: 1
    - GroupName: Value 2
      ColumnName: Player 1
      Amount: 1
    - GroupName: Value 2
      ColumnName: Player 2
      Amount: 1
    - GroupName: Value 2
      ColumnName: Player 3
      Amount: 1
    - GroupName: Value 3
      ColumnName: Player 1
      Amount: 1
    - GroupName: Value 3
      ColumnName: Player 2
      Amount: 1
    - GroupName: Value 3
      ColumnName: Player 3
      Amount: 4
    automaticMaxValue: 1
    maxValue: 20
    automaticMinValue: 0
    minValue: 0
  transitionTimeBetaFeature: -1
  heightRatio: 167.64703
  totalWidth: 348.19
  totalDepth: 0
  fitToContainer: 1
  fitMargin:
    left: 0
    top: 0
    right: 0
    bottom: 0
  barPrefab: {fileID: 222000010169192002, guid: a7807b96483fac445acb66dc367b150a,
    type: 3}
  axisSeperation: 20
  barSeperation: 27.46
  groupSeperation: 114.95
  barSize: 23.37
  barFitType: 1
  barFitAlign: 2
--- !u!114 &336153650
MonoBehaviour:
  m_ObjectHideFlags: 0
  m_CorrespondingSourceObject: {fileID: 0}
  m_PrefabInstance: {fileID: 0}
  m_PrefabAsset: {fileID: 0}
  m_GameObject: {fileID: 336153646}
  m_Enabled: 1
  m_EditorHideFlags: 0
  m_Script: {fileID: 11500000, guid: 7598682dc3bb9174d9546fe226cab95a, type: 3}
  m_Name: 
  m_EditorClassIdentifier: 
  SimpleView: 0
  format: 0
  depth:
    Automatic: 0
    Value: 0
  mainDivisions:
    messure: 0
    unitsPerDivision: 0
    total: 3
    material: {fileID: 2100000, guid: efebb8411b3539a4299fc48246fd2aff, type: 2}
    materialTiling:
      EnableTiling: 0
      TileFactor: 5
    markBackLength:
      Automatic: 1
      Value: 0.5
    markLength:
      Automatic: 1
      Value: 0.5
    markDepth:
      Automatic: 1
      Value: 0.5
    markThickness: 1
    textPrefab: {fileID: 114000014259531626, guid: 25ea031bfc10c7342ab5bcb344090e13,
      type: 3}
    textPrefix: 
    textSuffix: 
    fractionDigits: 2
    fontSize: 8
    fontSharpness: 3
    textDepth: 0
    textSeperation: -21.98
    alignment: 1
  subDivisions:
    messure: 0
    unitsPerDivision: 0
    total: 3
    material: {fileID: 2100000, guid: efebb8411b3539a4299fc48246fd2aff, type: 2}
    materialTiling:
      EnableTiling: 0
      TileFactor: 5
    markBackLength:
      Automatic: 1
      Value: 0.5
    markLength:
      Automatic: 1
      Value: 0.5
    markDepth:
      Automatic: 1
      Value: 0.5
    markThickness: 1
    textPrefab: {fileID: 114000014259531626, guid: 25ea031bfc10c7342ab5bcb344090e13,
      type: 3}
    textPrefix: 
    textSuffix: 
    fractionDigits: 2
    fontSize: 4
    fontSharpness: 3
    textDepth: 0
    textSeperation: -21.98
    alignment: 1
--- !u!114 &336153651
MonoBehaviour:
  m_ObjectHideFlags: 0
  m_CorrespondingSourceObject: {fileID: 0}
  m_PrefabInstance: {fileID: 0}
  m_PrefabAsset: {fileID: 0}
  m_GameObject: {fileID: 336153646}
  m_Enabled: 0
  m_EditorHideFlags: 0
  m_Script: {fileID: 11500000, guid: 08395b16192f9114e8ad4953e48f90bd, type: 3}
  m_Name: 
  m_EditorClassIdentifier: 
  SimpleView: 1
  format: 0
  depth:
    Automatic: 0
    Value: 0
  mainDivisions:
    messure: 0
    unitsPerDivision: 0
    total: 3
    material: {fileID: 0}
    materialTiling:
      EnableTiling: 0
      TileFactor: 100
    markBackLength:
      Automatic: 1
      Value: 0.5
    markLength:
      Automatic: 1
      Value: 0.5
    markDepth:
      Automatic: 1
      Value: 0.5
    markThickness: 0.83
    textPrefab: {fileID: 0}
    textPrefix: 
    textSuffix: 
    fractionDigits: 2
    fontSize: 12
    fontSharpness: 3
    textDepth: 0
    textSeperation: 0
    alignment: 1
  subDivisions:
    messure: 0
    unitsPerDivision: 0
    total: 3
    material: {fileID: 0}
    materialTiling:
      EnableTiling: 0
      TileFactor: 100
    markBackLength:
      Automatic: 1
      Value: 0.5
    markLength:
      Automatic: 1
      Value: 0.5
    markDepth:
      Automatic: 1
      Value: 0.5
    markThickness: 0.83
    textPrefab: {fileID: 0}
    textPrefix: 
    textSuffix: 
    fractionDigits: 2
    fontSize: 12
    fontSharpness: 3
    textDepth: 0
    textSeperation: 0
    alignment: 1
--- !u!114 &336153652
MonoBehaviour:
  m_ObjectHideFlags: 0
  m_CorrespondingSourceObject: {fileID: 0}
  m_PrefabInstance: {fileID: 0}
  m_PrefabAsset: {fileID: 0}
  m_GameObject: {fileID: 336153646}
  m_Enabled: 1
  m_EditorHideFlags: 0
  m_Script: {fileID: 11500000, guid: 683c1c28d013cce4c9128c952dbdca81, type: 3}
  m_Name: 
  m_EditorClassIdentifier: 
  textPrefab: {fileID: 114000014259531626, guid: 25ea031bfc10c7342ab5bcb344090e13,
    type: 3}
  textFormat:
    prefix: 
    suffix: 
    customFormat: 
  fontSize: 4
  fontSharpness: 3
  seperation: -9.78
  location:
    Breadth: 0
    Depth: 0
  alignment: 1
  visibleLabels: 0
--- !u!114 &336153653
MonoBehaviour:
  m_ObjectHideFlags: 0
  m_CorrespondingSourceObject: {fileID: 0}
  m_PrefabInstance: {fileID: 0}
  m_PrefabAsset: {fileID: 0}
  m_GameObject: {fileID: 336153646}
  m_Enabled: 1
  m_EditorHideFlags: 0
  m_Script: {fileID: 11500000, guid: 8a5935733d0eb5b48ba1db228c83f0f0, type: 3}
  m_Name: 
  m_EditorClassIdentifier: 
  textPrefab: {fileID: 114000014259531626, guid: 25ea031bfc10c7342ab5bcb344090e13,
    type: 3}
  textFormat:
    prefix: 
    suffix: 
    customFormat: 
  fontSize: 6
  fontSharpness: 3
  seperation: 1.73
  location:
    Breadth: 0
    Depth: -25.2
  alignment: 0
--- !u!114 &336153654
MonoBehaviour:
  m_ObjectHideFlags: 0
  m_CorrespondingSourceObject: {fileID: 0}
  m_PrefabInstance: {fileID: 0}
  m_PrefabAsset: {fileID: 0}
  m_GameObject: {fileID: 336153646}
  m_Enabled: 0
  m_EditorHideFlags: 0
  m_Script: {fileID: 11500000, guid: 5eb3e26fd06b41d4baa022120f5cd617, type: 3}
  m_Name: 
  m_EditorClassIdentifier: 
  textPrefab: {fileID: 114000011523374616, guid: e686e7c904b1d4b44a8eae8475c67797,
    type: 3}
  textFormat:
    prefix: 
    suffix: 
    customFormat: 
  fontSize: 14
  fontSharpness: 3
  seperation: -18
  location:
    Breadth: 0
    Depth: 0
  alignment: 0
  fractionDigits: 0
--- !u!1 &500852752
GameObject:
  m_ObjectHideFlags: 43
  m_CorrespondingSourceObject: {fileID: 0}
  m_PrefabInstance: {fileID: 0}
  m_PrefabAsset: {fileID: 0}
  serializedVersion: 6
  m_Component:
  - component: {fileID: 500852753}
  m_Layer: 5
  m_Name: New Game Object
  m_TagString: Untagged
  m_Icon: {fileID: 0}
  m_NavMeshLayer: 0
  m_StaticEditorFlags: 0
  m_IsActive: 1
--- !u!4 &500852753
Transform:
  m_ObjectHideFlags: 43
  m_CorrespondingSourceObject: {fileID: 0}
  m_PrefabInstance: {fileID: 0}
  m_PrefabAsset: {fileID: 0}
  m_GameObject: {fileID: 500852752}
  m_LocalRotation: {x: 0, y: 0, z: 0, w: 1}
  m_LocalPosition: {x: -210, y: -108, z: 0}
  m_LocalScale: {x: 1, y: 1, z: 1}
  m_Children: []
  m_Father: {fileID: 1925380130}
  m_RootOrder: 0
  m_LocalEulerAnglesHint: {x: 0, y: 0, z: 0}
--- !u!1 &567309912
GameObject:
  m_ObjectHideFlags: 0
  m_CorrespondingSourceObject: {fileID: 0}
  m_PrefabInstance: {fileID: 0}
  m_PrefabAsset: {fileID: 0}
  serializedVersion: 6
  m_Component:
  - component: {fileID: 567309913}
  - component: {fileID: 567309915}
  - component: {fileID: 567309914}
  m_Layer: 5
  m_Name: Image
  m_TagString: Untagged
  m_Icon: {fileID: 0}
  m_NavMeshLayer: 0
  m_StaticEditorFlags: 0
  m_IsActive: 1
--- !u!224 &567309913
RectTransform:
  m_ObjectHideFlags: 0
  m_CorrespondingSourceObject: {fileID: 0}
  m_PrefabInstance: {fileID: 0}
  m_PrefabAsset: {fileID: 0}
  m_GameObject: {fileID: 567309912}
  m_LocalRotation: {x: 0, y: 0, z: 0, w: 1}
  m_LocalPosition: {x: 0, y: 0, z: 0}
  m_LocalScale: {x: 1, y: 1, z: 1}
  m_Children: []
  m_Father: {fileID: 1226075348}
  m_RootOrder: 0
  m_LocalEulerAnglesHint: {x: 0, y: 0, z: 0}
  m_AnchorMin: {x: 0, y: 0}
  m_AnchorMax: {x: 1, y: 1}
  m_AnchoredPosition: {x: 0, y: 0}
  m_SizeDelta: {x: 0, y: 0}
  m_Pivot: {x: 0.5, y: 0.5}
--- !u!114 &567309914
MonoBehaviour:
  m_ObjectHideFlags: 0
  m_CorrespondingSourceObject: {fileID: 0}
  m_PrefabInstance: {fileID: 0}
  m_PrefabAsset: {fileID: 0}
  m_GameObject: {fileID: 567309912}
  m_Enabled: 1
  m_EditorHideFlags: 0
  m_Script: {fileID: 11500000, guid: fe87c0e1cc204ed48ad3b37840f39efc, type: 3}
  m_Name: 
  m_EditorClassIdentifier: 
  m_Material: {fileID: 0}
  m_Color: {r: 0.472, g: 0.472, b: 0.478, a: 1}
  m_RaycastTarget: 1
  m_Maskable: 1
  m_OnCullStateChanged:
    m_PersistentCalls:
      m_Calls: []
  m_Sprite: {fileID: 21300000, guid: b85804284542fc9458b58da772dfc346, type: 3}
  m_Type: 0
  m_PreserveAspect: 0
  m_FillCenter: 1
  m_FillMethod: 4
  m_FillAmount: 1
  m_FillClockwise: 1
  m_FillOrigin: 0
  m_UseSpriteMesh: 0
  m_PixelsPerUnitMultiplier: 1
--- !u!222 &567309915
CanvasRenderer:
  m_ObjectHideFlags: 0
  m_CorrespondingSourceObject: {fileID: 0}
  m_PrefabInstance: {fileID: 0}
  m_PrefabAsset: {fileID: 0}
  m_GameObject: {fileID: 567309912}
  m_CullTransparentMesh: 0
--- !u!224 &660338751 stripped
RectTransform:
  m_CorrespondingSourceObject: {fileID: 224000013311149932, guid: 44c162440cb5f1842bcb040f8fb66783,
    type: 3}
  m_PrefabInstance: {fileID: 1325569719}
  m_PrefabAsset: {fileID: 0}
--- !u!1 &764355533
GameObject:
  m_ObjectHideFlags: 0
  m_CorrespondingSourceObject: {fileID: 0}
  m_PrefabInstance: {fileID: 0}
  m_PrefabAsset: {fileID: 0}
  serializedVersion: 6
  m_Component:
  - component: {fileID: 764355538}
  - component: {fileID: 764355537}
  - component: {fileID: 764355535}
  - component: {fileID: 764355534}
  m_Layer: 0
  m_Name: Main Camera
  m_TagString: MainCamera
  m_Icon: {fileID: 0}
  m_NavMeshLayer: 0
  m_StaticEditorFlags: 0
  m_IsActive: 1
--- !u!81 &764355534
AudioListener:
  m_ObjectHideFlags: 0
  m_CorrespondingSourceObject: {fileID: 0}
  m_PrefabInstance: {fileID: 0}
  m_PrefabAsset: {fileID: 0}
  m_GameObject: {fileID: 764355533}
  m_Enabled: 1
--- !u!124 &764355535
Behaviour:
  m_ObjectHideFlags: 0
  m_CorrespondingSourceObject: {fileID: 0}
  m_PrefabInstance: {fileID: 0}
  m_PrefabAsset: {fileID: 0}
  m_GameObject: {fileID: 764355533}
  m_Enabled: 1
--- !u!20 &764355537
Camera:
  m_ObjectHideFlags: 0
  m_CorrespondingSourceObject: {fileID: 0}
  m_PrefabInstance: {fileID: 0}
  m_PrefabAsset: {fileID: 0}
  m_GameObject: {fileID: 764355533}
  m_Enabled: 1
  serializedVersion: 2
  m_ClearFlags: 2
  m_BackGroundColor: {r: 0.07058824, g: 0.08627451, b: 0.09803922, a: 1}
  m_projectionMatrixMode: 1
  m_GateFitMode: 2
  m_FOVAxisMode: 0
  m_SensorSize: {x: 36, y: 24}
  m_LensShift: {x: 0, y: 0}
  m_FocalLength: 50
  m_NormalizedViewPortRect:
    serializedVersion: 2
    x: 0
    y: 0
    width: 1
    height: 1
  near clip plane: 0.3
  far clip plane: 1000
  field of view: 60
  orthographic: 0
  orthographic size: 5
  m_Depth: -1
  m_CullingMask:
    serializedVersion: 2
    m_Bits: 4294967295
  m_RenderingPath: -1
  m_TargetTexture: {fileID: 0}
  m_TargetDisplay: 0
  m_TargetEye: 3
  m_HDR: 0
  m_AllowMSAA: 1
  m_AllowDynamicResolution: 0
  m_ForceIntoRT: 0
  m_OcclusionCulling: 1
  m_StereoConvergence: 10
  m_StereoSeparation: 0.022
--- !u!4 &764355538
Transform:
  m_ObjectHideFlags: 0
  m_CorrespondingSourceObject: {fileID: 0}
  m_PrefabInstance: {fileID: 0}
  m_PrefabAsset: {fileID: 0}
  m_GameObject: {fileID: 764355533}
  m_LocalRotation: {x: 0, y: 0, z: 0, w: 1}
  m_LocalPosition: {x: 0, y: 1, z: -10}
  m_LocalScale: {x: 1, y: 1, z: 1}
  m_Children: []
  m_Father: {fileID: 0}
  m_RootOrder: 0
  m_LocalEulerAnglesHint: {x: 0, y: 0, z: 0}
--- !u!1 &1226075344
GameObject:
  m_ObjectHideFlags: 0
  m_CorrespondingSourceObject: {fileID: 0}
  m_PrefabInstance: {fileID: 0}
  m_PrefabAsset: {fileID: 0}
  serializedVersion: 6
  m_Component:
  - component: {fileID: 1226075348}
  - component: {fileID: 1226075347}
  - component: {fileID: 1226075346}
  - component: {fileID: 1226075345}
  m_Layer: 5
  m_Name: Canvas
  m_TagString: Untagged
  m_Icon: {fileID: 0}
  m_NavMeshLayer: 0
  m_StaticEditorFlags: 0
  m_IsActive: 1
--- !u!114 &1226075345
MonoBehaviour:
  m_ObjectHideFlags: 0
  m_CorrespondingSourceObject: {fileID: 0}
  m_PrefabInstance: {fileID: 0}
  m_PrefabAsset: {fileID: 0}
  m_GameObject: {fileID: 1226075344}
  m_Enabled: 1
  m_EditorHideFlags: 0
  m_Script: {fileID: 11500000, guid: dc42784cf147c0c48a680349fa168899, type: 3}
  m_Name: 
  m_EditorClassIdentifier: 
  m_IgnoreReversedGraphics: 1
  m_BlockingObjects: 0
  m_BlockingMask:
    serializedVersion: 2
    m_Bits: 4294967295
--- !u!114 &1226075346
MonoBehaviour:
  m_ObjectHideFlags: 0
  m_CorrespondingSourceObject: {fileID: 0}
  m_PrefabInstance: {fileID: 0}
  m_PrefabAsset: {fileID: 0}
  m_GameObject: {fileID: 1226075344}
  m_Enabled: 1
  m_EditorHideFlags: 0
  m_Script: {fileID: 11500000, guid: 0cd44c1031e13a943bb63640046fad76, type: 3}
  m_Name: 
  m_EditorClassIdentifier: 
  m_UiScaleMode: 0
  m_ReferencePixelsPerUnit: 100
  m_ScaleFactor: 1
  m_ReferenceResolution: {x: 800, y: 600}
  m_ScreenMatchMode: 0
  m_MatchWidthOrHeight: 0
  m_PhysicalUnit: 3
  m_FallbackScreenDPI: 96
  m_DefaultSpriteDPI: 96
  m_DynamicPixelsPerUnit: 1
--- !u!223 &1226075347
Canvas:
  m_ObjectHideFlags: 0
  m_CorrespondingSourceObject: {fileID: 0}
  m_PrefabInstance: {fileID: 0}
  m_PrefabAsset: {fileID: 0}
  m_GameObject: {fileID: 1226075344}
  m_Enabled: 1
  serializedVersion: 3
  m_RenderMode: 1
  m_Camera: {fileID: 764355537}
  m_PlaneDistance: 20
  m_PixelPerfect: 0
  m_ReceivesEvents: 1
  m_OverrideSorting: 0
  m_OverridePixelPerfect: 0
  m_SortingBucketNormalizedSize: 0
  m_AdditionalShaderChannelsFlag: 25
  m_SortingLayerID: 0
  m_SortingOrder: 0
  m_TargetDisplay: 0
--- !u!224 &1226075348
RectTransform:
  m_ObjectHideFlags: 0
  m_CorrespondingSourceObject: {fileID: 0}
  m_PrefabInstance: {fileID: 0}
  m_PrefabAsset: {fileID: 0}
  m_GameObject: {fileID: 1226075344}
  m_LocalRotation: {x: 0, y: 0, z: 0, w: 1}
  m_LocalPosition: {x: 0, y: 0, z: 0}
  m_LocalScale: {x: 0, y: 0, z: 0}
  m_Children:
  - {fileID: 567309913}
  - {fileID: 1895316600}
  - {fileID: 1299473804}
  - {fileID: 660338751}
  - {fileID: 1917194732}
  m_Father: {fileID: 0}
  m_RootOrder: 2
  m_LocalEulerAnglesHint: {x: 0, y: 0, z: 0}
  m_AnchorMin: {x: 0, y: 0}
  m_AnchorMax: {x: 0, y: 0}
  m_AnchoredPosition: {x: 0, y: 0}
  m_SizeDelta: {x: 0, y: 0}
  m_Pivot: {x: 0, y: 0}
--- !u!1 &1299473803
GameObject:
  m_ObjectHideFlags: 0
  m_CorrespondingSourceObject: {fileID: 0}
  m_PrefabInstance: {fileID: 0}
  m_PrefabAsset: {fileID: 0}
  serializedVersion: 6
  m_Component:
  - component: {fileID: 1299473804}
  - component: {fileID: 1299473806}
  m_Layer: 5
  m_Name: Panel
  m_TagString: Untagged
  m_Icon: {fileID: 0}
  m_NavMeshLayer: 0
  m_StaticEditorFlags: 0
  m_IsActive: 1
--- !u!224 &1299473804
RectTransform:
  m_ObjectHideFlags: 0
  m_CorrespondingSourceObject: {fileID: 0}
  m_PrefabInstance: {fileID: 0}
  m_PrefabAsset: {fileID: 0}
  m_GameObject: {fileID: 1299473803}
  m_LocalRotation: {x: 0, y: 0, z: 0, w: 1}
  m_LocalPosition: {x: 0, y: 0, z: 0}
  m_LocalScale: {x: 1, y: 1, z: 1}
  m_Children:
  - {fileID: 336153647}
  - {fileID: 1925380130}
  m_Father: {fileID: 1226075348}
  m_RootOrder: 2
  m_LocalEulerAnglesHint: {x: 0, y: 0, z: 0}
  m_AnchorMin: {x: 0, y: 0}
  m_AnchorMax: {x: 1, y: 1}
  m_AnchoredPosition: {x: 0, y: 0}
  m_SizeDelta: {x: -400, y: -200}
  m_Pivot: {x: 0.5, y: 0.5}
--- !u!222 &1299473806
CanvasRenderer:
  m_ObjectHideFlags: 0
  m_CorrespondingSourceObject: {fileID: 0}
  m_PrefabInstance: {fileID: 0}
  m_PrefabAsset: {fileID: 0}
  m_GameObject: {fileID: 1299473803}
  m_CullTransparentMesh: 0
--- !u!1001 &1325569719
PrefabInstance:
  m_ObjectHideFlags: 0
  serializedVersion: 2
  m_Modification:
    m_TransformParent: {fileID: 1226075348}
    m_Modifications:
    - target: {fileID: 1000012050335254, guid: 44c162440cb5f1842bcb040f8fb66783, type: 3}
      propertyPath: m_IsActive
      value: 0
      objectReference: {fileID: 0}
    - target: {fileID: 114000011953285840, guid: 44c162440cb5f1842bcb040f8fb66783,
        type: 3}
      propertyPath: chart
      value: 
      objectReference: {fileID: 336153648}
    - target: {fileID: 114000011953285840, guid: 44c162440cb5f1842bcb040f8fb66783,
        type: 3}
      propertyPath: legendItemPrefab
      value: 
      objectReference: {fileID: 114000012660670322, guid: 4d348c9ef60a91d46b5ddb129e55eec6,
        type: 3}
    - target: {fileID: 114000012253675810, guid: 44c162440cb5f1842bcb040f8fb66783,
        type: 3}
      propertyPath: m_Enabled
      value: 0
      objectReference: {fileID: 0}
    - target: {fileID: 224000013311149932, guid: 44c162440cb5f1842bcb040f8fb66783,
        type: 3}
      propertyPath: m_Pivot.x
      value: 0.5
      objectReference: {fileID: 0}
    - target: {fileID: 224000013311149932, guid: 44c162440cb5f1842bcb040f8fb66783,
        type: 3}
      propertyPath: m_Pivot.y
      value: 0.5
      objectReference: {fileID: 0}
    - target: {fileID: 224000013311149932, guid: 44c162440cb5f1842bcb040f8fb66783,
        type: 3}
      propertyPath: m_RootOrder
      value: 3
      objectReference: {fileID: 0}
    - target: {fileID: 224000013311149932, guid: 44c162440cb5f1842bcb040f8fb66783,
        type: 3}
      propertyPath: m_AnchorMax.x
      value: 0
      objectReference: {fileID: 0}
    - target: {fileID: 224000013311149932, guid: 44c162440cb5f1842bcb040f8fb66783,
        type: 3}
      propertyPath: m_AnchorMax.y
      value: 0
      objectReference: {fileID: 0}
    - target: {fileID: 224000013311149932, guid: 44c162440cb5f1842bcb040f8fb66783,
        type: 3}
      propertyPath: m_AnchorMin.x
      value: 0
      objectReference: {fileID: 0}
    - target: {fileID: 224000013311149932, guid: 44c162440cb5f1842bcb040f8fb66783,
        type: 3}
      propertyPath: m_AnchorMin.y
      value: 0
      objectReference: {fileID: 0}
    - target: {fileID: 224000013311149932, guid: 44c162440cb5f1842bcb040f8fb66783,
        type: 3}
      propertyPath: m_SizeDelta.x
      value: 143.9
      objectReference: {fileID: 0}
    - target: {fileID: 224000013311149932, guid: 44c162440cb5f1842bcb040f8fb66783,
        type: 3}
      propertyPath: m_SizeDelta.y
      value: 78.5
      objectReference: {fileID: 0}
    - target: {fileID: 224000013311149932, guid: 44c162440cb5f1842bcb040f8fb66783,
        type: 3}
      propertyPath: m_LocalPosition.x
      value: 0
      objectReference: {fileID: 0}
    - target: {fileID: 224000013311149932, guid: 44c162440cb5f1842bcb040f8fb66783,
        type: 3}
      propertyPath: m_LocalPosition.y
      value: 0
      objectReference: {fileID: 0}
    - target: {fileID: 224000013311149932, guid: 44c162440cb5f1842bcb040f8fb66783,
        type: 3}
      propertyPath: m_LocalPosition.z
      value: 0
      objectReference: {fileID: 0}
    - target: {fileID: 224000013311149932, guid: 44c162440cb5f1842bcb040f8fb66783,
        type: 3}
      propertyPath: m_LocalRotation.w
      value: 1
      objectReference: {fileID: 0}
    - target: {fileID: 224000013311149932, guid: 44c162440cb5f1842bcb040f8fb66783,
        type: 3}
      propertyPath: m_LocalRotation.x
      value: 0
      objectReference: {fileID: 0}
    - target: {fileID: 224000013311149932, guid: 44c162440cb5f1842bcb040f8fb66783,
        type: 3}
      propertyPath: m_LocalRotation.y
      value: 0
      objectReference: {fileID: 0}
    - target: {fileID: 224000013311149932, guid: 44c162440cb5f1842bcb040f8fb66783,
        type: 3}
      propertyPath: m_LocalRotation.z
      value: 0
      objectReference: {fileID: 0}
    - target: {fileID: 224000013311149932, guid: 44c162440cb5f1842bcb040f8fb66783,
        type: 3}
      propertyPath: m_AnchoredPosition.x
      value: 74.899994
      objectReference: {fileID: 0}
    - target: {fileID: 224000013311149932, guid: 44c162440cb5f1842bcb040f8fb66783,
        type: 3}
      propertyPath: m_AnchoredPosition.y
      value: 40.799988
      objectReference: {fileID: 0}
    m_RemovedComponents:
    - {fileID: 114000012253675810, guid: 44c162440cb5f1842bcb040f8fb66783, type: 3}
  m_SourcePrefab: {fileID: 100100000, guid: 44c162440cb5f1842bcb040f8fb66783, type: 3}
--- !u!1 &1407095665
GameObject:
  m_ObjectHideFlags: 0
  m_CorrespondingSourceObject: {fileID: 0}
  m_PrefabInstance: {fileID: 0}
  m_PrefabAsset: {fileID: 0}
  serializedVersion: 6
  m_Component:
  - component: {fileID: 1407095668}
  - component: {fileID: 1407095667}
  - component: {fileID: 1407095666}
  m_Layer: 0
  m_Name: EventSystem
  m_TagString: Untagged
  m_Icon: {fileID: 0}
  m_NavMeshLayer: 0
  m_StaticEditorFlags: 0
  m_IsActive: 1
--- !u!114 &1407095666
MonoBehaviour:
  m_ObjectHideFlags: 0
  m_CorrespondingSourceObject: {fileID: 0}
  m_PrefabInstance: {fileID: 0}
  m_PrefabAsset: {fileID: 0}
  m_GameObject: {fileID: 1407095665}
  m_Enabled: 1
  m_EditorHideFlags: 0
  m_Script: {fileID: 11500000, guid: 4f231c4fb786f3946a6b90b886c48677, type: 3}
  m_Name: 
  m_EditorClassIdentifier: 
  m_HorizontalAxis: Horizontal
  m_VerticalAxis: Vertical
  m_SubmitButton: Submit
  m_CancelButton: Cancel
  m_InputActionsPerSecond: 10
  m_RepeatDelay: 0.5
  m_ForceModuleActive: 0
--- !u!114 &1407095667
MonoBehaviour:
  m_ObjectHideFlags: 0
  m_CorrespondingSourceObject: {fileID: 0}
  m_PrefabInstance: {fileID: 0}
  m_PrefabAsset: {fileID: 0}
  m_GameObject: {fileID: 1407095665}
  m_Enabled: 1
  m_EditorHideFlags: 0
  m_Script: {fileID: 11500000, guid: 76c392e42b5098c458856cdf6ecaaaa1, type: 3}
  m_Name: 
  m_EditorClassIdentifier: 
  m_FirstSelected: {fileID: 0}
  m_sendNavigationEvents: 1
  m_DragThreshold: 5
--- !u!4 &1407095668
Transform:
  m_ObjectHideFlags: 0
  m_CorrespondingSourceObject: {fileID: 0}
  m_PrefabInstance: {fileID: 0}
  m_PrefabAsset: {fileID: 0}
  m_GameObject: {fileID: 1407095665}
  m_LocalRotation: {x: 0, y: 0, z: 0, w: 1}
  m_LocalPosition: {x: 0, y: 0, z: 0}
  m_LocalScale: {x: 1, y: 1, z: 1}
  m_Children: []
  m_Father: {fileID: 0}
  m_RootOrder: 3
  m_LocalEulerAnglesHint: {x: 0, y: 0, z: 0}
--- !u!1 &1414321157
GameObject:
  m_ObjectHideFlags: 43
  m_CorrespondingSourceObject: {fileID: 0}
  m_PrefabInstance: {fileID: 0}
  m_PrefabAsset: {fileID: 0}
  serializedVersion: 6
  m_Component:
  - component: {fileID: 1414321158}
  m_Layer: 5
  m_Name: New Game Object
  m_TagString: Untagged
  m_Icon: {fileID: 0}
  m_NavMeshLayer: 0
  m_StaticEditorFlags: 0
  m_IsActive: 1
--- !u!4 &1414321158
Transform:
  m_ObjectHideFlags: 43
  m_CorrespondingSourceObject: {fileID: 0}
  m_PrefabInstance: {fileID: 0}
  m_PrefabAsset: {fileID: 0}
  m_GameObject: {fileID: 1414321157}
  m_LocalRotation: {x: 0, y: 0, z: 0, w: 1}
  m_LocalPosition: {x: -209.99998, y: -107.99999, z: 0}
  m_LocalScale: {x: 1.2062379, y: 1.2062379, z: 1.2062379}
  m_Children: []
  m_Father: {fileID: 336153647}
  m_RootOrder: 0
  m_LocalEulerAnglesHint: {x: 0, y: 0, z: 0}
--- !u!1 &1895316599
GameObject:
  m_ObjectHideFlags: 0
  m_CorrespondingSourceObject: {fileID: 0}
  m_PrefabInstance: {fileID: 0}
  m_PrefabAsset: {fileID: 0}
  serializedVersion: 6
  m_Component:
  - component: {fileID: 1895316600}
  - component: {fileID: 1895316602}
  - component: {fileID: 1895316601}
  m_Layer: 5
  m_Name: Text
  m_TagString: Untagged
  m_Icon: {fileID: 0}
  m_NavMeshLayer: 0
  m_StaticEditorFlags: 0
  m_IsActive: 1
--- !u!224 &1895316600
RectTransform:
  m_ObjectHideFlags: 0
  m_CorrespondingSourceObject: {fileID: 0}
  m_PrefabInstance: {fileID: 0}
  m_PrefabAsset: {fileID: 0}
  m_GameObject: {fileID: 1895316599}
  m_LocalRotation: {x: 0, y: 0, z: 0, w: 1}
  m_LocalPosition: {x: 0, y: 0, z: 0}
  m_LocalScale: {x: 1, y: 1, z: 1}
  m_Children: []
  m_Father: {fileID: 1226075348}
  m_RootOrder: 1
  m_LocalEulerAnglesHint: {x: 0, y: 0, z: 0}
  m_AnchorMin: {x: 0.5, y: 0.5}
  m_AnchorMax: {x: 0.5, y: 0.5}
  m_AnchoredPosition: {x: 0, y: 152.59}
  m_SizeDelta: {x: 160, y: 30}
  m_Pivot: {x: 0.5, y: 0.5}
--- !u!114 &1895316601
MonoBehaviour:
  m_ObjectHideFlags: 0
  m_CorrespondingSourceObject: {fileID: 0}
  m_PrefabInstance: {fileID: 0}
  m_PrefabAsset: {fileID: 0}
  m_GameObject: {fileID: 1895316599}
  m_Enabled: 1
  m_EditorHideFlags: 0
  m_Script: {fileID: 11500000, guid: 5f7201a12d95ffc409449d95f23cf332, type: 3}
  m_Name: 
  m_EditorClassIdentifier: 
  m_Material: {fileID: 0}
  m_Color: {r: 1, g: 1, b: 1, a: 1}
  m_RaycastTarget: 1
  m_Maskable: 1
  m_OnCullStateChanged:
    m_PersistentCalls:
      m_Calls: []
  m_FontData:
    m_Font: {fileID: 10102, guid: 0000000000000000e000000000000000, type: 0}
    m_FontSize: 14
    m_FontStyle: 0
    m_BestFit: 0
    m_MinSize: 10
    m_MaxSize: 40
    m_Alignment: 1
    m_AlignByGeometry: 0
    m_RichText: 1
    m_HorizontalOverflow: 1
    m_VerticalOverflow: 0
    m_LineSpacing: 1
  m_Text: 'How to place a graph chart on top of a bar chart:'
--- !u!222 &1895316602
CanvasRenderer:
  m_ObjectHideFlags: 0
  m_CorrespondingSourceObject: {fileID: 0}
  m_PrefabInstance: {fileID: 0}
  m_PrefabAsset: {fileID: 0}
  m_GameObject: {fileID: 1895316599}
  m_CullTransparentMesh: 0
--- !u!1 &1901909008
GameObject:
  m_ObjectHideFlags: 0
  m_CorrespondingSourceObject: {fileID: 0}
  m_PrefabInstance: {fileID: 0}
  m_PrefabAsset: {fileID: 0}
  serializedVersion: 6
  m_Component:
  - component: {fileID: 1901909010}
  - component: {fileID: 1901909009}
  m_Layer: 0
  m_Name: MixedFeed
  m_TagString: Untagged
  m_Icon: {fileID: 0}
  m_NavMeshLayer: 0
  m_StaticEditorFlags: 0
  m_IsActive: 1
--- !u!114 &1901909009
MonoBehaviour:
  m_ObjectHideFlags: 0
  m_CorrespondingSourceObject: {fileID: 0}
  m_PrefabInstance: {fileID: 0}
  m_PrefabAsset: {fileID: 0}
  m_GameObject: {fileID: 1901909008}
  m_Enabled: 1
  m_EditorHideFlags: 0
  m_Script: {fileID: 11500000, guid: e2700c6cb7bf66e47a9ae50ef358ca22, type: 3}
  m_Name: 
  m_EditorClassIdentifier: 
  Bar: {fileID: 336153648}
  Graph: {fileID: 1925380133}
--- !u!4 &1901909010
Transform:
  m_ObjectHideFlags: 0
  m_CorrespondingSourceObject: {fileID: 0}
  m_PrefabInstance: {fileID: 0}
  m_PrefabAsset: {fileID: 0}
  m_GameObject: {fileID: 1901909008}
  m_LocalRotation: {x: 0, y: 0, z: 0, w: 1}
  m_LocalPosition: {x: 0, y: 1, z: 10}
  m_LocalScale: {x: 1, y: 1, z: 1}
  m_Children: []
  m_Father: {fileID: 0}
  m_RootOrder: 4
  m_LocalEulerAnglesHint: {x: 0, y: 0, z: 0}
--- !u!1 &1907848625
GameObject:
  m_ObjectHideFlags: 0
  m_CorrespondingSourceObject: {fileID: 0}
  m_PrefabInstance: {fileID: 0}
  m_PrefabAsset: {fileID: 0}
  serializedVersion: 6
  m_Component:
  - component: {fileID: 1907848627}
  - component: {fileID: 1907848626}
  m_Layer: 5
  m_Name: GraphDataInitializer
  m_TagString: Untagged
  m_Icon: {fileID: 0}
  m_NavMeshLayer: 0
  m_StaticEditorFlags: 0
  m_IsActive: 1
--- !u!114 &1907848626
MonoBehaviour:
  m_ObjectHideFlags: 0
  m_CorrespondingSourceObject: {fileID: 0}
  m_PrefabInstance: {fileID: 0}
  m_PrefabAsset: {fileID: 0}
  m_GameObject: {fileID: 1907848625}
  m_Enabled: 1
  m_EditorHideFlags: 0
  m_Script: {fileID: 11500000, guid: 932bc7424c0ae484b9f7b8d1e8646e3f, type: 3}
  m_Name: 
  m_EditorClassIdentifier: 
  Graph: {fileID: 0}
  TotalPoints: 40
--- !u!224 &1907848627
RectTransform:
  m_ObjectHideFlags: 0
  m_CorrespondingSourceObject: {fileID: 0}
  m_PrefabInstance: {fileID: 0}
  m_PrefabAsset: {fileID: 0}
  m_GameObject: {fileID: 1907848625}
  m_LocalRotation: {x: -0, y: -0, z: -0, w: 1}
  m_LocalPosition: {x: 0, y: 0, z: 0}
  m_LocalScale: {x: 1, y: 1, z: 1}
  m_Children: []
  m_Father: {fileID: 0}
  m_RootOrder: 1
  m_LocalEulerAnglesHint: {x: 0, y: 0, z: 0}
  m_AnchorMin: {x: 0.5, y: 0.5}
  m_AnchorMax: {x: 0.5, y: 0.5}
  m_AnchoredPosition: {x: 425.5, y: 194}
  m_SizeDelta: {x: 100, y: 100}
  m_Pivot: {x: 0.5, y: 0.5}
--- !u!1001 &1917194731
PrefabInstance:
  m_ObjectHideFlags: 0
  serializedVersion: 2
  m_Modification:
    m_TransformParent: {fileID: 1226075348}
    m_Modifications:
    - target: {fileID: 114000010483641462, guid: 149c576c056be1345807a3dc94e006b2,
        type: 3}
      propertyPath: BarChart.Array.size
      value: 1
      objectReference: {fileID: 0}
    - target: {fileID: 114000010483641462, guid: 149c576c056be1345807a3dc94e006b2,
        type: 3}
      propertyPath: BarChart.Array.data[0]
      value: 
      objectReference: {fileID: 336153648}
    - target: {fileID: 224000012685174106, guid: 149c576c056be1345807a3dc94e006b2,
        type: 3}
      propertyPath: m_Pivot.x
      value: 0.5
      objectReference: {fileID: 0}
    - target: {fileID: 224000012685174106, guid: 149c576c056be1345807a3dc94e006b2,
        type: 3}
      propertyPath: m_Pivot.y
      value: 1
      objectReference: {fileID: 0}
    - target: {fileID: 224000012685174106, guid: 149c576c056be1345807a3dc94e006b2,
        type: 3}
      propertyPath: m_RootOrder
      value: 4
      objectReference: {fileID: 0}
    - target: {fileID: 224000012685174106, guid: 149c576c056be1345807a3dc94e006b2,
        type: 3}
      propertyPath: m_AnchorMax.x
      value: 1
      objectReference: {fileID: 0}
    - target: {fileID: 224000012685174106, guid: 149c576c056be1345807a3dc94e006b2,
        type: 3}
      propertyPath: m_AnchorMax.y
      value: 0
      objectReference: {fileID: 0}
    - target: {fileID: 224000012685174106, guid: 149c576c056be1345807a3dc94e006b2,
        type: 3}
      propertyPath: m_AnchorMin.x
      value: 0
      objectReference: {fileID: 0}
    - target: {fileID: 224000012685174106, guid: 149c576c056be1345807a3dc94e006b2,
        type: 3}
      propertyPath: m_AnchorMin.y
      value: 0
      objectReference: {fileID: 0}
    - target: {fileID: 224000012685174106, guid: 149c576c056be1345807a3dc94e006b2,
        type: 3}
      propertyPath: m_SizeDelta.x
      value: 0
      objectReference: {fileID: 0}
    - target: {fileID: 224000012685174106, guid: 149c576c056be1345807a3dc94e006b2,
        type: 3}
      propertyPath: m_SizeDelta.y
      value: 33.200012
      objectReference: {fileID: 0}
    - target: {fileID: 224000012685174106, guid: 149c576c056be1345807a3dc94e006b2,
        type: 3}
      propertyPath: m_LocalPosition.x
      value: 0
      objectReference: {fileID: 0}
    - target: {fileID: 224000012685174106, guid: 149c576c056be1345807a3dc94e006b2,
        type: 3}
      propertyPath: m_LocalPosition.y
      value: 0
      objectReference: {fileID: 0}
    - target: {fileID: 224000012685174106, guid: 149c576c056be1345807a3dc94e006b2,
        type: 3}
      propertyPath: m_LocalPosition.z
      value: 0
      objectReference: {fileID: 0}
    - target: {fileID: 224000012685174106, guid: 149c576c056be1345807a3dc94e006b2,
        type: 3}
      propertyPath: m_LocalRotation.w
      value: 1
      objectReference: {fileID: 0}
    - target: {fileID: 224000012685174106, guid: 149c576c056be1345807a3dc94e006b2,
        type: 3}
      propertyPath: m_LocalRotation.x
      value: 0
      objectReference: {fileID: 0}
    - target: {fileID: 224000012685174106, guid: 149c576c056be1345807a3dc94e006b2,
        type: 3}
      propertyPath: m_LocalRotation.y
      value: 0
      objectReference: {fileID: 0}
    - target: {fileID: 224000012685174106, guid: 149c576c056be1345807a3dc94e006b2,
        type: 3}
      propertyPath: m_LocalRotation.z
      value: 0
      objectReference: {fileID: 0}
    - target: {fileID: 224000012685174106, guid: 149c576c056be1345807a3dc94e006b2,
        type: 3}
      propertyPath: m_AnchoredPosition.x
      value: 0
      objectReference: {fileID: 0}
    - target: {fileID: 224000012685174106, guid: 149c576c056be1345807a3dc94e006b2,
        type: 3}
      propertyPath: m_AnchoredPosition.y
      value: 33.200012
      objectReference: {fileID: 0}
    m_RemovedComponents: []
  m_SourcePrefab: {fileID: 100100000, guid: 149c576c056be1345807a3dc94e006b2, type: 3}
--- !u!224 &1917194732 stripped
RectTransform:
  m_CorrespondingSourceObject: {fileID: 224000012685174106, guid: 149c576c056be1345807a3dc94e006b2,
    type: 3}
  m_PrefabInstance: {fileID: 1917194731}
  m_PrefabAsset: {fileID: 0}
--- !u!1 &1925380129
GameObject:
  m_ObjectHideFlags: 0
  m_CorrespondingSourceObject: {fileID: 0}
  m_PrefabInstance: {fileID: 0}
  m_PrefabAsset: {fileID: 0}
  serializedVersion: 6
  m_Component:
  - component: {fileID: 1925380130}
  - component: {fileID: 1925380133}
  - component: {fileID: 1925380132}
  - component: {fileID: 1925380131}
  m_Layer: 5
  m_Name: GraphSimple
  m_TagString: Untagged
  m_Icon: {fileID: 0}
  m_NavMeshLayer: 0
  m_StaticEditorFlags: 0
  m_IsActive: 1
--- !u!224 &1925380130
RectTransform:
  m_ObjectHideFlags: 0
  m_CorrespondingSourceObject: {fileID: 0}
  m_PrefabInstance: {fileID: 0}
  m_PrefabAsset: {fileID: 0}
  m_GameObject: {fileID: 1925380129}
  m_LocalRotation: {x: 0, y: 0, z: 0, w: 1}
  m_LocalPosition: {x: 0, y: 0, z: 0}
  m_LocalScale: {x: 1, y: 1, z: 1}
  m_Children:
  - {fileID: 500852753}
  m_Father: {fileID: 1299473804}
  m_RootOrder: 1
  m_LocalEulerAnglesHint: {x: 0, y: 0, z: 0}
  m_AnchorMin: {x: 0, y: 0}
  m_AnchorMax: {x: 1, y: 1}
  m_AnchoredPosition: {x: 0, y: 0}
  m_SizeDelta: {x: -0.0000038146973, y: 0}
  m_Pivot: {x: 0.5, y: 0.5}
--- !u!114 &1925380131
MonoBehaviour:
  m_ObjectHideFlags: 0
  m_CorrespondingSourceObject: {fileID: 0}
  m_PrefabInstance: {fileID: 0}
  m_PrefabAsset: {fileID: 0}
  m_GameObject: {fileID: 1925380129}
  m_Enabled: 1
  m_EditorHideFlags: 0
  m_Script: {fileID: 11500000, guid: c09bf2e39f5ebfa409a492a80a326b3a, type: 3}
  m_Name: 
  m_EditorClassIdentifier: 
  Sensitivity: 30
--- !u!114 &1925380132
MonoBehaviour:
  m_ObjectHideFlags: 0
  m_CorrespondingSourceObject: {fileID: 0}
  m_PrefabInstance: {fileID: 0}
  m_PrefabAsset: {fileID: 0}
  m_GameObject: {fileID: 1925380129}
  m_Enabled: 1
  m_EditorHideFlags: 0
  m_Script: {fileID: 11500000, guid: 7598682dc3bb9174d9546fe226cab95a, type: 3}
  m_Name: 
  m_EditorClassIdentifier: 
  SimpleView: 1
  format: 0
  depth:
    Automatic: 0
    Value: 0
  mainDivisions:
    messure: 0
    unitsPerDivision: 0
    total: 3
    material: {fileID: 2100000, guid: efebb8411b3539a4299fc48246fd2aff, type: 2}
    materialTiling:
      EnableTiling: 0
      TileFactor: 100
    markBackLength:
      Automatic: 1
      Value: 0.5
    markLength:
      Automatic: 1
      Value: 0.5
    markDepth:
      Automatic: 1
      Value: 0.5
    markThickness: 1
    textPrefab: {fileID: 0}
    textPrefix: 
    textSuffix: 
    fractionDigits: 2
    fontSize: 12
    fontSharpness: 3
    textDepth: 0
    textSeperation: -31.51
    alignment: 2
  subDivisions:
    messure: 0
    unitsPerDivision: 0
    total: 3
    material: {fileID: 2100000, guid: efebb8411b3539a4299fc48246fd2aff, type: 2}
    materialTiling:
      EnableTiling: 0
      TileFactor: 100
    markBackLength:
      Automatic: 1
      Value: 0.5
    markLength:
      Automatic: 1
      Value: 0.5
    markDepth:
      Automatic: 1
      Value: 0.5
    markThickness: 1
    textPrefab: {fileID: 0}
    textPrefix: 
    textSuffix: 
    fractionDigits: 2
    fontSize: 12
    fontSharpness: 3
    textDepth: 0
    textSeperation: -31.51
    alignment: 2
--- !u!114 &1925380133
MonoBehaviour:
  m_ObjectHideFlags: 0
  m_CorrespondingSourceObject: {fileID: 0}
  m_PrefabInstance: {fileID: 0}
  m_PrefabAsset: {fileID: 0}
  m_GameObject: {fileID: 1925380129}
  m_Enabled: 1
  m_EditorHideFlags: 0
  m_Script: {fileID: 11500000, guid: b652978617146ea49983ac4601def914, type: 3}
  m_Name: 
  m_EditorClassIdentifier: 
  mPreviewObject: {fileID: 0}
  OnRedraw:
    m_PersistentCalls:
      m_Calls: []
  keepOrthoSize: 0
  paperEffectText: 0
  vRSpaceText: 0
  vRSpaceScale: 0.1
  maintainLabelSize: 0
  autoScrollHorizontally: 0
  horizontalScrolling: 0
  autoScrollVertically: 0
  verticalScrolling: 0
  raycastTarget: 1
  MousePan:
    m_PersistentCalls:
      m_Calls: []
  horizontalPanning: 0
  verticalPanning: 0
  heightRatio: 221
  widthRatio: 459
  PointClicked:
    m_PersistentCalls:
      m_Calls: []
  PointHovered:
    m_PersistentCalls:
      m_Calls: []
  NonHovered:
    m_PersistentCalls:
      m_Calls: []
  itemFormat: <?x>:<?y>
  Data:
    automaticVerticalViewGap: 0
    automaticVerticallView: 0
    automaticcHorizontaViewGap: 0
    automaticHorizontalView: 0
    horizontalViewSize: 10
    horizontalViewOrigin: 0
    verticalViewSize: 10
    verticalViewOrigin: 0
    mSerializedData:
    - Name: Category1
      InitialData: []
      IsBezierCurve: 0
      SegmentsPerCurve: 10
      Depth: 0
      LineHoverPrefab: {fileID: 11494010, guid: 87cd6d8b7ca9527449e32ecefc4015c5,
        type: 3}
      PointHoverPrefab: {fileID: 11475216, guid: 57ee497f5c86d764fa20628075109b20,
        type: 3}
      MaskPoints: 0
      Material: {fileID: 2100000, guid: c217ea83c14fb734f9447e7593f9c943, type: 2}
      LineTiling:
        EnableTiling: 1
        TileFactor: 45.5
      InnerFill: {fileID: 0}
      LineThickness: 5.43
      StetchFill: 0
      DotPrefab: {fileID: 0}
      PointMaterial: {fileID: 2100000, guid: 9843dc986d4eb53498e98084e7fee1ed, type: 2}
      PointSize: 10
      ViewOrder: 0
      AllowNonFunctionsBeta: 0
  LineClicked:
    m_PersistentCalls:
      m_Calls: []
  LineHovered:
    m_PersistentCalls:
      m_Calls: []
  fitToContainer: 1
  negativeFill: 0
  fitMargin:
    left: 0
    top: 0
    right: 0
    bottom: 0
